# col  1 -  3: year/doy/sod 
# col  4 -  7: dLat/dLon/dH/ZTD 
# col  8 - 11: TotalSatNumber/FixedWLNum/FixedL1Num/Converged 
# col 12 - 13: GDOP/PDOP 
# END OF HEADER
2011    283    43200.0000    0.3779   -0.4742   -5.5336    4.5875  9  2  2  0  2.0020  1.7859  
2011    283    43230.0000   -0.0924   -0.3333   -1.5949    2.9654  9  4  0  0  2.0056  1.7888  
2011    283    43260.0000   -0.0212   -0.5150   -0.0055    2.4768  9  4  2  0  2.0091  1.7916  
2011    283    43290.0000   -0.0168   -0.3249    0.2005    2.4020  9  6  0  0  2.0126  1.7945  
2011    283    43320.0000    0.0609   -0.2375   -0.0249    2.3973  9  6  0  0  2.0160  1.7973  
2011    283    43350.0000   -0.0068    0.0119    0.0909    2.3402  9  8  3  0  2.0195  1.8001  
2011    283    43380.0000    0.0035    0.1559   -0.0228    2.3122  9  7  0  0  2.0229  1.8028  
2011    283    43410.0000   -0.0268    0.2161    0.1067    2.2944  9  8  2  0  2.0262  1.8055  
2011    283    43440.0000   -0.0375    0.2696   -0.0089    2.3246  9  7  2  0  2.0296  1.8082  
2011    283    43470.0000   -0.0371    0.2094    0.0619    2.3394  9  8  2  0  2.0329  1.8109  
2011    283    43500.0000   -0.0547    0.1769    0.1369    2.3498  9  8  2  0  2.0361  1.8136  
2011    283    43530.0000   -0.0519    0.2332    0.2074    2.3466  9  8  0  0  2.0393  1.8162  
2011    283    43560.0000   -0.0442    0.2968    0.1881    2.3583  9  8  2  0  2.0425  1.8187  
2011    283    43590.0000   -0.0754    0.3141    0.1843    2.3661  9  7  2  0  2.0457  1.8213  
2011    283    43620.0000   -0.0728    0.2659    0.1238    2.3719  9  8  0  0  2.0488  1.8238  
2011    283    43650.0000   -0.0755    0.1922    0.0815    2.3749  9  8  2  0  2.0519  1.8263  
2011    283    43680.0000   -0.0504    0.1832    0.0602    2.3772  9  8  2  0  2.0549  1.8287  
2011    283    43710.0000   -0.0569    0.2005    0.0392    2.3823  9  8  2  0  2.0579  1.8311  
2011    283    43740.0000   -0.0476    0.2170   -0.0048    2.3865  9  8  2  0  2.0608  1.8335  
2011    283    43770.0000   -0.0351    0.2198   -0.0317    2.3901  9  8  2  0  2.0637  1.8358  
2011    283    43800.0000    0.0127    0.0040   -0.0056    2.3966  9  9  9  0  2.0666  1.8381  
2011    283    43830.0000    0.0079    0.0042   -0.0098    2.3971  9  9  9  0  2.0694  1.8404  
2011    283    43860.0000    0.0043    0.0044   -0.0053    2.3973  9  9  9  0  2.0722  1.8426  
2011    283    43890.0000    0.0128    0.0078   -0.0078    2.3976  9  9  9  1  2.0749  1.8448  
2011    283    43920.0000    0.0055    0.0038   -0.0145    2.4042  9  9  8  1  2.0775  1.8469  
2011    283    43950.0000    0.0081    0.0059   -0.0290    2.4048  9  9  8  1  2.0802  1.8490  
2011    283    43980.0000    0.0041    0.0113   -0.0396    2.4059  9  9  8  1  2.0827  1.8511  
2011    283    44010.0000    0.0092    0.0108   -0.0441    2.4059  9  9  8  1  2.0853  1.8531  
2011    283    44040.0000    0.0123    0.0081   -0.0428    2.4058  9  9  8  1  2.0878  1.8551  
2011    283    44070.0000    0.0121    0.0080   -0.0358    2.4058  9  9  8  1  2.0902  1.8571  
2011    283    44100.0000    0.0160    0.0029   -0.0156    2.3989  9  9  9  1  2.0926  1.8590  
2011    283    44130.0000    0.0168    0.0079   -0.0231    2.3990  9  9  9  1  2.0949  1.8608  
2011    283    44160.0000    0.0113    0.0022   -0.0151    2.3988  9  9  9  1  2.0972  1.8627  
2011    283    44190.0000    0.0123    0.0035   -0.0172    2.3983  9  9  9  1  2.0994  1.8645  
2011    283    44220.0000    0.0100    0.0028   -0.0191    2.3981  9  9  9  1  2.1016  1.8662  
2011    283    44250.0000    0.0134    0.0063   -0.0203    2.3982  9  9  9  1  2.1037  1.8679  
2011    283    44280.0000    0.0176    0.0092   -0.0189    2.3981  9  9  9  1  2.1058  1.8696  
2011    283    44310.0000    0.0094    0.0080   -0.0100    2.3985  9  9  9  1  2.1078  1.8712  
2011    283    44340.0000    0.0115    0.0100   -0.0208    2.3983  9  9  9  1  2.1098  1.8728  
2011    283    44370.0000    0.0177    0.0134   -0.0326    2.3974  9  9  9  1  2.1118  1.8744  
2011    283    44400.0000    0.0182    0.0081   -0.0262    2.3969  9  9  9  1  2.1137  1.8759  
2011    283    44430.0000    0.0114    0.0069   -0.0228    2.3967  9  9  9  1  2.1155  1.8774  
2011    283    44460.0000    0.0142    0.0015   -0.0163    2.3957  9  9  9  1  2.1173  1.8788  
2011    283    44490.0000    0.0065    0.0011   -0.0185    2.3952  9  9  9  1  2.1190  1.8802  
2011    283    44520.0000    0.0097    0.0019   -0.0188    2.3939  9  9  9  1  2.1207  1.8816  
2011    283    44550.0000    0.0060    0.0008   -0.0022    2.3929  9  9  9  1  2.1224  1.8829  
2011    283    44580.0000    0.0050    0.0005    0.0023    2.3924  9  9  9  1  2.1240  1.8842  
2011    283    44610.0000    0.0040    0.0047    0.0053    2.3873  8  8  8  1  2.6273  2.2835  
2011    283    44640.0000    0.0028    0.0048    0.0085    2.3876  8  8  8  1  2.6325  2.2877  
2011    283    44670.0000    0.0046    0.0090    0.0009    2.3875  8  8  8  1  2.6376  2.2918  
2011    283    44700.0000    0.0054    0.0057    0.0036    2.3873  9  8  8  1  2.2669  1.9900  
2011    283    44730.0000    0.0055    0.0066   -0.0062    2.3873  9  8  8  1  2.2767  1.9981  
2011    283    44760.0000    0.0069    0.0119   -0.0047    2.3873  9  8  8  1  2.2865  2.0063  
2011    283    44790.0000    0.0138    0.0127   -0.0070    2.3873  9  8  8  1  2.2963  2.0144  
2011    283    44820.0000    0.0134    0.0142   -0.0129    2.3871  9  8  8  1  2.3062  2.0225  
2011    283    44850.0000    0.0100    0.0086   -0.0004    2.3866  9  8  8  1  2.3160  2.0307  
2011    283    44880.0000    0.0056    0.0081    0.0123    2.3861  9  8  8  1  2.3258  2.0388  
2011    283    44910.0000    0.0116    0.0111    0.0037    2.3857  9  8  8  1  2.3357  2.0470  
2011    283    44940.0000    0.0103    0.0038    0.0123    2.3853  9  8  8  1  2.3455  2.0551  
2011    283    44970.0000    0.0071    0.0052    0.0091    2.3849  9  8  8  1  2.3553  2.0632  
2011    283    45000.0000    0.0015    0.0059    0.0112    2.3848  9  8  8  1  2.3651  2.0713  
2011    283    45030.0000    0.0013    0.0046    0.0195    2.3848  9  8  8  1  2.3748  2.0794  
2011    283    45060.0000    0.0052    0.0074    0.0145    2.3849  9  8  8  1  2.3845  2.0874  
2011    283    45090.0000    0.0039    0.0082    0.0181    2.3851  9  8  8  1  2.3942  2.0954  
2011    283    45120.0000    0.0039    0.0061    0.0163    2.3853  9  8  8  1  2.4038  2.1033  
2011    283    45150.0000    0.0000    0.0073    0.0162    2.3855  9  8  8  1  2.4134  2.1112  
2011    283    45180.0000   -0.0005    0.0075    0.0034    2.3858  9  8  8  1  2.4228  2.1190  
2011    283    45210.0000    0.0060    0.0106   -0.0098    2.3862  9  8  8  1  2.4322  2.1267  
2011    283    45240.0000    0.0056    0.0109   -0.0149    2.3864  9  8  8  1  2.4415  2.1344  
2011    283    45270.0000    0.0101    0.0118   -0.0112    2.3865  9  8  8  1  2.4508  2.1420  
2011    283    45300.0000    0.0051    0.0127   -0.0060    2.3870  9  8  8  1  2.4599  2.1496  
2011    283    45330.0000   -0.0468    0.2088    0.0225    2.3821  9  8  5  1  2.4689  2.1570  
2011    283    45360.0000   -0.0461    0.2094    0.0218    2.3811  9  8  5  1  2.4778  2.1643  
2011    283    45390.0000   -0.0466    0.1611    0.0585    2.3746  9  8  2  1  2.4866  2.1716  
2011    283    45420.0000   -0.0430    0.1567    0.0621    2.3743  9  8  2  1  2.4953  2.1787  
2011    283    45450.0000   -0.0383    0.2117    0.0398    2.3783  9  8  5  1  2.5038  2.1857  
2011    283    45480.0000   -0.0413    0.2130    0.0364    2.3776  9  8  5  1  2.5122  2.1926  
2011    283    45510.0000    0.0019    0.0183    0.0033    2.3852  9  9  4  1  2.5204  2.1993  
2011    283    45540.0000   -0.0483    0.2113    0.0546    2.3758  9  8  5  1  2.5284  2.2059  
2011    283    45570.0000    0.0165    0.0182    0.0046    2.3889  9  8  8  1  2.5363  2.2124  
2011    283    45600.0000    0.0185    0.0214   -0.0100    2.3889  9  8  8  1  2.5440  2.2187  
2011    283    45630.0000    0.0179    0.0200   -0.0069    2.3896  9  8  8  1  2.5515  2.2248  
2011    283    45660.0000    0.0137    0.0181   -0.0119    2.3900  9  8  8  1  2.5589  2.2308  
2011    283    45690.0000    0.0103    0.0181   -0.0227    2.3906  9  8  8  1  2.5660  2.2366  
2011    283    45720.0000    0.0073    0.0175   -0.0098    2.3912  9  8  8  1  2.5729  2.2423  
2011    283    45750.0000    0.0143    0.0183   -0.0071    2.3918  9  8  8  1  2.5796  2.2477  
2011    283    45780.0000    0.0089    0.0156   -0.0093    2.3922  9  8  8  1  2.5861  2.2530  
2011    283    45810.0000    0.0163    0.0187   -0.0535    2.4125  9  9  8  1  2.5923  2.2581  
2011    283    45840.0000    0.0152    0.0153   -0.0573    2.4128  9  9  8  1  2.5983  2.2629  
2011    283    45870.0000    0.0134    0.0128   -0.0500    2.4130  9  9  8  1  2.6041  2.2676  
2011    283    45900.0000    0.0128    0.0118   -0.0446    2.4134  9  9  9  1  2.6096  2.2721  
2011    283    45930.0000    0.0128    0.0077   -0.0390    2.4135  9  9  9  1  2.6149  2.2763  
2011    283    45960.0000    0.0140    0.0055   -0.0393    2.4139  9  9  9  1  2.6199  2.2803  
2011    283    45990.0000    0.0106    0.0044   -0.0395    2.4140  9  9  9  1  2.6246  2.2841  
2011    283    46020.0000    0.0089    0.0087   -0.0412    2.4143  9  9  9  1  2.6291  2.2877  
2011    283    46050.0000    0.0031    0.0091   -0.0269    2.4147  9  9  9  1  2.6333  2.2911  
2011    283    46080.0000    0.0059    0.0081   -0.0325    2.4153  9  9  9  1  2.6372  2.2942  
2011    283    46110.0000    0.0025    0.0020   -0.0421    2.4159  9  9  9  1  2.6409  2.2971  
2011    283    46140.0000   -0.0058    0.0016   -0.0309    2.4161  9  9  9  1  2.6442  2.2997  
2011    283    46170.0000   -0.0089    0.0007   -0.0333    2.4160  9  9  9  1  2.6473  2.3021  
2011    283    46200.0000    0.0003    0.0073   -0.0410    2.4159  9  9  9  1  2.6501  2.3043  
2011    283    46230.0000    0.0029    0.0058   -0.0451    2.4160  9  9  9  1  2.6526  2.3062  
2011    283    46260.0000   -0.0006    0.0039   -0.0353    2.4159  9  9  9  1  2.6548  2.3079  
2011    283    46290.0000   -0.0001    0.0016   -0.0454    2.4155  9  9  9  1  2.6567  2.3093  
2011    283    46320.0000    0.0022    0.0005   -0.0477    2.4151  9  9  9  1  2.6584  2.3105  
2011    283    46350.0000    0.0002    0.0073   -0.0372    2.4153  9  9  9  1  2.6597  2.3114  
2011    283    46380.0000    0.0003    0.0033   -0.0319    2.4158  9  9  9  1  2.6607  2.3121  
2011    283    46410.0000    0.0095    0.0051   -0.0501    2.4159  9  9  9  1  2.6615  2.3125  
2011    283    46440.0000   -0.0016    0.0035   -0.0398    2.4158  9  9  9  1  2.6620  2.3127  
2011    283    46470.0000    0.0094    0.0087   -0.0654    2.4161  9  9  9  1  2.6621  2.3127  
2011    283    46500.0000    0.0087    0.0071   -0.0617    2.4166  9  9  9  1  2.6620  2.3124  
2011    283    46530.0000    0.0030    0.0020   -0.0619    2.4172  9  9  9  1  2.6616  2.3119  
2011    283    46560.0000    0.0112    0.0088   -0.0643    2.4179  9  9  9  1  2.6610  2.3112  
2011    283    46590.0000    0.0090    0.0080   -0.0514    2.4182  9  9  9  1  2.6600  2.3102  
2011    283    46620.0000    0.0102    0.0106   -0.0540    2.4186  9  9  9  1  2.6588  2.3090  
2011    283    46650.0000    0.0027    0.0072   -0.0449    2.4183  9  9  9  1  2.6573  2.3075  
2011    283    46680.0000    0.0025    0.0035   -0.0376    2.4185  9  9  9  1  2.6556  2.3059  
2011    283    46710.0000    0.0007    0.0019   -0.0388    2.4184  9  9  9  1  2.6535  2.3040  
2011    283    46740.0000    0.0025   -0.0002   -0.0391    2.4188  9  9  9  1  2.6513  2.3020  
2011    283    46770.0000    0.0043    0.0008   -0.0471    2.4190  9  9  9  1  2.6488  2.2997  
2011    283    46800.0000    0.0014   -0.0001   -0.0424    2.4197  9  9  9  1  2.6460  2.2972  
2011    283    46830.0000    0.0001    0.0011   -0.0451    2.4197  9  9  9  1  2.6430  2.2945  
2011    283    46860.0000   -0.0043   -0.0008   -0.0410    2.4198  9  9  9  1  2.6398  2.2916  
2011    283    46890.0000    0.0021    0.0024   -0.0498    2.4195  9  9  9  1  2.6364  2.2886  
2011    283    46920.0000   -0.0009    0.0022   -0.0518    2.4192  9  9  9  1  2.6327  2.2853  
2011    283    46950.0000    0.0052    0.0063   -0.0455    2.4185  9  9  9  1  2.6288  2.2819  
2011    283    46980.0000    0.0077    0.0107   -0.0554    2.4184  9  9  9  1  2.6247  2.2784  
2011    283    47010.0000    0.0051    0.0070   -0.0466    2.4187  9  9  9  1  2.6205  2.2746  
2011    283    47040.0000    0.0020    0.0084   -0.0507    2.4185  9  9  9  1  2.6160  2.2707  
2011    283    47070.0000    0.0049    0.0073   -0.0579    2.4186  9  9  9  1  2.6114  2.2667  
2011    283    47100.0000   -0.0002    0.0065   -0.0513    2.4191  9  9  9  1  2.6066  2.2625  
2011    283    47130.0000    0.0031    0.0062   -0.0461    2.4191  9  9  9  1  2.6016  2.2582  
2011    283    47160.0000    0.0118    0.0092   -0.0599    2.4191  10  9  9  1  2.0263  1.7972  
2011    283    47190.0000    0.0041    0.0061   -0.0481    2.4188  10  9  9  1  2.0237  1.7950  
2011    283    47220.0000    0.0086    0.0085   -0.0534    2.4179  10  9  9  1  2.0211  1.7926  
2011    283    47250.0000    0.0116    0.0065   -0.0635    2.4176  10  9  9  1  2.0183  1.7902  
2011    283    47280.0000    0.0053    0.0056   -0.0597    2.4171  10  9  9  1  2.0155  1.7878  
2011    283    47310.0000   -0.0006    0.0055   -0.0439    2.4167  10  9  9  1  2.0126  1.7853  
2011    283    47340.0000    0.0059    0.0060   -0.0583    2.4163  10  9  9  1  2.0096  1.7827  
2011    283    47370.0000    0.0107    0.0085   -0.0570    2.4159  10  9  9  1  2.0066  1.7800  
2011    283    47400.0000    0.0076    0.0094   -0.0445    2.4148  9  8  8  1  2.1142  1.8798  
2011    283    47430.0000    0.0086    0.0093   -0.0372    2.4146  9  8  8  1  2.1128  1.8783  
2011    283    47460.0000    0.0120    0.0108   -0.0495    2.4147  9  8  8  1  2.1114  1.8768  
2011    283    47490.0000    0.0072    0.0101   -0.0402    2.4147  9  8  8  1  2.1100  1.8753  
2011    283    47520.0000    0.0071    0.0081   -0.0325    2.4146  9  8  8  1  2.1085  1.8738  
2011    283    47550.0000    0.0072    0.0083   -0.0385    2.4142  9  8  8  1  2.1070  1.8722  
2011    283    47580.0000    0.0144    0.0121   -0.0479    2.4139  9  8  8  1  2.1054  1.8705  
2011    283    47610.0000    0.0171    0.0106   -0.0610    2.4134  9  8  8  1  2.1037  1.8688  
2011    283    47640.0000    0.0114    0.0063   -0.0346    2.4132  9  8  8  1  2.1020  1.8671  
2011    283    47670.0000    0.0104    0.0099   -0.0301    2.4129  9  8  8  1  2.1003  1.8653  
2011    283    47700.0000    0.0146    0.0064   -0.0487    2.4123  9  8  8  1  2.0985  1.8635  
2011    283    47730.0000    0.0168    0.0107   -0.0537    2.4115  9  8  8  1  2.0967  1.8617  
2011    283    47760.0000    0.0160    0.0086   -0.0446    2.4107  9  8  8  1  2.0948  1.8598  
2011    283    47790.0000    0.0115    0.0072   -0.0390    2.4098  9  8  8  1  2.0929  1.8579  
2011    283    47820.0000    0.0058    0.0047   -0.0416    2.4086  9  8  8  1  2.0909  1.8560  
2011    283    47850.0000    0.0009    0.0010   -0.0185    2.4080  9  8  8  1  2.0889  1.8540  
2011    283    47880.0000   -0.0010    0.0014   -0.0292    2.4071  9  8  8  1  2.0869  1.8520  
2011    283    47910.0000   -0.0012    0.0009   -0.0174    2.4064  9  8  8  1  2.0848  1.8500  
2011    283    47940.0000    0.0050    0.0023   -0.0370    2.4053  9  8  8  1  2.0827  1.8480  
2011    283    47970.0000    0.0059    0.0033   -0.0129    2.4029  9  8  5  1  2.0806  1.8459  
2011    283    48000.0000    0.0041    0.0041   -0.0051    2.4022  9  8  5  1  2.0784  1.8438  
2011    283    48030.0000    0.0010    0.0001    0.0098    2.4014  9  8  5  1  2.0762  1.8416  
2011    283    48060.0000   -0.0010    0.0039    0.0024    2.4007  9  8  5  1  2.0739  1.8394  
2011    283    48090.0000    0.0027    0.0023    0.0028    2.4001  9  8  5  1  2.0716  1.8373  
2011    283    48120.0000    0.0091    0.0069    0.0155    2.3994  9  8  5  1  2.0693  1.8350  
2011    283    48150.0000    0.0076    0.0040   -0.0029    2.3991  9  8  5  1  2.0670  1.8328  
2011    283    48180.0000   -0.0025    0.0010    0.0087    2.3991  9  8  5  1  2.0646  1.8306  
2011    283    48210.0000   -0.0097    0.0226    0.0135    2.3987  9  9  5  1  2.0622  1.8283  
2011    283    48240.0000   -0.0053    0.0232    0.0147    2.3986  9  9  5  1  2.0598  1.8260  
2011    283    48270.0000   -0.0047    0.0260    0.0124    2.3987  9  9  5  1  2.0573  1.8237  
2011    283    48300.0000   -0.0063    0.0267    0.0150    2.3988  9  9  5  1  2.0548  1.8213  
2011    283    48330.0000   -0.0071    0.0261    0.0090    2.3988  9  9  5  1  2.0523  1.8190  
2011    283    48360.0000   -0.0023    0.0272    0.0242    2.3984  9  9  6  1  2.0498  1.8166  
2011    283    48390.0000    0.0038    0.0289    0.0113    2.3978  9  9  6  1  2.0473  1.8143  
2011    283    48420.0000    0.0032    0.0306    0.0135    2.3972  9  9  6  1  2.0447  1.8119  
2011    283    48450.0000   -0.0008    0.0302    0.0217    2.3966  9  9  6  1  2.0422  1.8095  
2011    283    48480.0000   -0.0035    0.0240    0.0029    2.3964  9  9  6  1  2.0396  1.8071  
2011    283    48510.0000   -0.0024    0.0056    0.0294    2.3990  8  8  7  1  3.0154  2.6088  
2011    283    48540.0000   -0.0044    0.0032    0.0209    2.4041  8  8  8  1  2.9979  2.5934  
2011    283    48570.0000   -0.0019    0.0004    0.0101    2.4044  8  8  8  1  2.9806  2.5782  
2011    283    48600.0000   -0.0004   -0.0012    0.0232    2.4049  8  8  8  1  2.9634  2.5633  
2011    283    48630.0000   -0.0021    0.0012    0.0237    2.4051  8  8  8  1  2.9465  2.5485  
2011    283    48660.0000   -0.0004    0.0027    0.0177    2.4051  8  8  8  1  2.9298  2.5338  
2011    283    48690.0000   -0.0012    0.0037    0.0311    2.4056  8  8  8  1  2.9133  2.5194  
2011    283    48720.0000   -0.0047    0.0037    0.0310    2.4059  8  8  8  1  2.8971  2.5052  
2011    283    48750.0000   -0.0021    0.0034    0.0234    2.4062  8  8  8  1  2.8810  2.4912  
2011    283    48780.0000   -0.0047    0.0029    0.0293    2.4065  8  8  8  1  2.8651  2.4773  
2011    283    48810.0000    0.0039    0.0014    0.0213    2.4064  8  8  8  1  2.8494  2.4636  
2011    283    48840.0000    0.0057   -0.0011    0.0283    2.4071  8  8  8  1  2.8340  2.4501  
2011    283    48870.0000    0.0014    0.0018    0.0273    2.4075  8  8  8  1  2.8187  2.4368  
2011    283    48900.0000   -0.0026    0.0024    0.0205    2.4079  8  8  8  1  2.8037  2.4237  
2011    283    48930.0000   -0.0049    0.0033    0.0160    2.4084  8  8  8  1  2.7888  2.4108  
2011    283    48960.0000    0.0023    0.0026    0.0115    2.4088  8  8  8  1  2.7741  2.3980  
2011    283    48990.0000   -0.0013    0.0070    0.0106    2.4085  8  8  8  1  2.7596  2.3854  
2011    283    49020.0000    0.0014    0.0045    0.0035    2.4083  8  8  8  1  2.7454  2.3730  
2011    283    49050.0000    0.0016    0.0048   -0.0002    2.4078  8  8  8  1  2.7313  2.3608  
2011    283    49080.0000    0.0032    0.0024   -0.0070    2.4073  8  8  8  1  2.7174  2.3487  
2011    283    49110.0000    0.0011    0.0022    0.0164    2.4072  8  8  8  1  2.7037  2.3368  
2011    283    49140.0000    0.0030    0.0085    0.0124    2.4068  8  8  8  1  2.6902  2.3251  
2011    283    49170.0000    0.0006    0.0059    0.0041    2.4066  8  8  8  1  2.6768  2.3136  
2011    283    49200.0000    0.0012    0.0017    0.0132    2.4068  8  8  8  1  2.6637  2.3022  
2011    283    49230.0000    0.0015    0.0040    0.0062    2.4066  8  8  8  1  2.6507  2.2909  
2011    283    49260.0000    0.0041    0.0057    0.0038    2.4062  8  8  8  1  2.6379  2.2799  
2011    283    49290.0000    0.0018    0.0045    0.0079    2.4057  8  8  8  1  2.6253  2.2690  
2011    283    49320.0000    0.0013    0.0029    0.0077    2.4048  8  8  8  1  2.6129  2.2582  
2011    283    49350.0000   -0.0021    0.0018    0.0086    2.4043  8  8  8  1  2.6006  2.2477  
2011    283    49380.0000   -0.0006    0.0022    0.0125    2.4038  8  8  8  1  2.5885  2.2372  
2011    283    49410.0000   -0.0020    0.0005    0.0178    2.4033  8  8  8  1  2.5766  2.2270  
2011    283    49440.0000   -0.0018    0.0021    0.0308    2.4031  8  8  8  1  2.5649  2.2168  
2011    283    49470.0000   -0.0045   -0.0009    0.0210    2.4025  8  8  8  1  2.5533  2.2069  
2011    283    49500.0000   -0.0048    0.0041    0.0308    2.4015  8  8  8  1  2.5419  2.1971  
2011    283    49530.0000   -0.0050    0.0068    0.0345    2.4000  8  8  8  1  2.5307  2.1874  
2011    283    49560.0000    0.0026    0.0029    0.0279    2.3991  8  8  8  1  2.5196  2.1779  
2011    283    49590.0000    0.0011    0.0026    0.0347    2.3980  8  8  8  1  2.5087  2.1685  
2011    283    49620.0000    0.0009    0.0067    0.0485    2.3966  8  8  8  1  2.4980  2.1593  
2011    283    49650.0000    0.0070    0.0019    0.0361    2.3956  8  8  8  1  2.4874  2.1502  
2011    283    49680.0000    0.0068    0.0030    0.0477    2.3949  8  8  8  1  2.4769  2.1412  
2011    283    49710.0000    0.0037    0.0042    0.0548    2.3941  8  8  8  1  2.4666  2.1324  
2011    283    49740.0000    0.0015    0.0042    0.0625    2.3932  8  8  8  1  2.4565  2.1238  
2011    283    49770.0000    0.0039    0.0026    0.0504    2.3928  8  8  8  1  2.4465  2.1152  
2011    283    49800.0000    0.0037    0.0012    0.0551    2.3929  8  8  8  1  2.4367  2.1068  
2011    283    49830.0000    0.0064    0.0063    0.0588    2.3931  8  8  8  1  2.4271  2.0986  
2011    283    49860.0000    0.0030    0.0026    0.0463    2.3927  8  8  8  1  2.4175  2.0904  
2011    283    49890.0000    0.0053    0.0067    0.0557    2.3927  8  8  8  1  2.4081  2.0824  
2011    283    49920.0000    0.0072    0.0052    0.0528    2.3929  8  8  8  1  2.3989  2.0745  
2011    283    49950.0000    0.0094    0.0094    0.0721    2.3933  8  8  8  1  2.3898  2.0668  
2011    283    49980.0000    0.0076    0.0097    0.0633    2.3933  8  8  8  1  2.3809  2.0592  
2011    283    50010.0000    0.0092    0.0085    0.0565    2.3932  8  8  8  1  2.3720  2.0517  
2011    283    50040.0000    0.0108    0.0074    0.0468    2.3937  8  8  8  1  2.3634  2.0443  
2011    283    50070.0000    0.0080    0.0106    0.0544    2.3955  7  7  7  1  3.3472  2.7671  
2011    283    50100.0000    0.0089    0.0080    0.0593    2.3957  7  7  7  1  3.3585  2.7747  
2011    283    50130.0000    0.0067    0.0021    0.0417    2.3958  7  7  7  1  3.3700  2.7825  
2011    283    50160.0000    0.0083    0.0043    0.0387    2.3959  7  7  7  1  3.3819  2.7906  
2011    283    50190.0000    0.0078    0.0045    0.0321    2.3960  7  7  7  1  3.3940  2.7989  
2011    283    50220.0000    0.0095    0.0072    0.0365    2.3961  7  7  7  1  3.4064  2.8074  
2011    283    50250.0000    0.0096    0.0098    0.0562    2.3962  7  7  7  1  3.4191  2.8161  
2011    283    50280.0000    0.0052    0.0050    0.0396    2.3963  7  7  7  1  3.4321  2.8251  
2011    283    50310.0000    0.0085    0.0066    0.0363    2.3963  7  7  7  1  3.4452  2.8342  
2011    283    50340.0000    0.0061    0.0072    0.0303    2.3963  7  7  7  1  3.4587  2.8436  
2011    283    50370.0000    0.0061    0.0042    0.0420    2.3963  7  7  7  1  3.4724  2.8532  
2011    283    50400.0000    0.0072    0.0080    0.0427    2.3964  7  7  7  1  3.4863  2.8630  
2011    283    50430.0000    0.0058    0.0024    0.0335    2.3964  7  7  7  1  3.5004  2.8730  
2011    283    50460.0000    0.0066    0.0050    0.0407    2.3964  7  7  7  1  3.5147  2.8831  
2011    283    50490.0000    0.0031   -0.0013    0.0235    2.3963  7  7  7  1  3.5292  2.8934  
2011    283    50520.0000    0.0028    0.0030    0.0331    2.3963  7  7  7  1  3.5439  2.9039  
2011    283    50550.0000    0.0032    0.0040    0.0416    2.3963  7  7  7  1  3.5588  2.9145  
2011    283    50580.0000    0.0056    0.0056    0.0434    2.3962  7  7  7  1  3.5739  2.9253  
2011    283    50610.0000    0.0083    0.0060    0.0388    2.3962  7  7  7  1  3.5890  2.9362  
2011    283    50640.0000    0.0051    0.0046    0.0395    2.3961  7  7  7  1  3.6044  2.9473  
2011    283    50670.0000    0.0054    0.0002    0.0330    2.3960  7  7  7  1  3.6198  2.9584  
2011    283    50700.0000    0.0051    0.0073    0.0502    2.3960  7  7  7  1  3.6354  2.9697  
2011    283    50730.0000    0.0104    0.0067    0.0589    2.3960  7  7  7  1  3.6510  2.9810  
2011    283    50760.0000    0.0110    0.0097    0.0587    2.3959  7  7  7  1  3.6667  2.9924  
2011    283    50790.0000    0.0089    0.0063    0.0319    2.3959  7  7  7  1  3.6825  3.0039  
2011    283    50820.0000    0.0124    0.0108    0.0443    2.3958  7  7  7  1  3.6983  3.0154  
2011    283    50850.0000    0.0102    0.0133    0.0588    2.3958  7  7  7  1  3.7141  3.0270  
2011    283    50880.0000    0.0098    0.0109    0.0501    2.3958  7  7  7  1  3.7299  3.0385  
2011    283    50910.0000    0.0088    0.0086    0.0377    2.3957  7  7  7  1  3.7457  3.0501  
2011    283    50940.0000    0.0055    0.0050    0.0362    2.3956  7  7  7  1  3.7614  3.0617  
2011    283    50970.0000    0.0019    0.0025    0.0299    2.3955  7  7  7  1  3.7771  3.0732  
2011    283    51000.0000    0.0048    0.0048    0.0288    2.3954  7  7  7  1  3.7926  3.0847  
2011    283    51030.0000    0.0051    0.0029    0.0294    2.3953  7  7  7  1  3.8081  3.0961  
2011    283    51060.0000    0.0099    0.0064    0.0389    2.3951  7  7  7  1  3.8234  3.1074  
2011    283    51090.0000    0.0070    0.0036    0.0351    2.3949  7  7  7  1  3.8386  3.1186  
2011    283    51120.0000    0.0103    0.0054    0.0399    2.3947  7  7  7  1  3.8536  3.1297  
2011    283    51150.0000    0.0116    0.0084    0.0444    2.3945  7  7  7  1  3.8683  3.1406  
2011    283    51180.0000    0.0085    0.0038    0.0515    2.3943  7  7  7  1  3.8828  3.1514  
2011    283    51210.0000    0.0089    0.0003    0.0519    2.3941  7  7  7  1  3.8971  3.1620  
2011    283    51240.0000    0.0071    0.0023    0.0527    2.3940  7  7  7  1  3.9110  3.1724  
2011    283    51270.0000    0.0079    0.0034    0.0397    2.3937  7  7  7  1  3.9246  3.1825  
2011    283    51300.0000    0.0080    0.0043    0.0444    2.3935  7  7  7  1  3.9379  3.1924  
2011    283    51330.0000    0.0049    0.0048    0.0469    2.3931  7  7  7  1  3.9508  3.2021  
2011    283    51360.0000    0.0061    0.0047    0.0506    2.3928  7  7  7  1  3.9633  3.2114  
2011    283    51390.0000    0.0105    0.0061    0.0430    2.3923  7  7  7  1  3.9753  3.2204  
2011    283    51420.0000    0.0100    0.0055    0.0511    2.3919  7  7  7  1  3.9869  3.2291  
2011    283    51450.0000    0.0089    0.0026    0.0536    2.3917  7  7  7  1  3.9980  3.2375  
2011    283    51480.0000    0.0032    0.0014    0.0380    2.3912  7  7  7  1  4.0086  3.2454  
2011    283    51510.0000    0.0044    0.0057    0.0393    2.3907  7  7  7  1  4.0186  3.2530  
2011    283    51540.0000    0.0019    0.0038    0.0390    2.3904  7  7  7  1  4.0281  3.2601  
2011    283    51570.0000   -0.0027    0.0033    0.0326    2.3900  7  7  7  1  4.0370  3.2668  
2011    283    51600.0000    0.0002    0.0078    0.0424    2.3895  7  7  7  1  4.0452  3.2731  
2011    283    51630.0000    0.0013    0.0020    0.0518    2.3894  7  7  7  1  4.0529  3.2788  
2011    283    51660.0000    0.0027    0.0023    0.0313    2.3889  7  7  7  1  4.0598  3.2841  
2011    283    51690.0000    0.0007    0.0034    0.0417    2.3886  7  7  7  1  4.0661  3.2889  
2011    283    51720.0000   -0.0016    0.0043    0.0329    2.3878  7  7  7  1  4.0717  3.2932  
2011    283    51750.0000   -0.0010    0.0034    0.0220    2.3870  7  7  7  1  4.0766  3.2969  
2011    283    51780.0000    0.0007    0.0021    0.0351    2.3863  7  7  7  1  4.0808  3.3001  
2011    283    51810.0000   -0.0012    0.0005    0.0436    2.3858  7  7  7  1  4.0842  3.3028  
2011    283    51840.0000   -0.0045   -0.0005    0.0479    2.3853  7  7  7  1  4.0868  3.3048  
2011    283    51870.0000    0.0008    0.0031    0.0515    2.3847  7  7  7  1  4.0887  3.3063  
2011    283    51900.0000   -0.0011    0.0020    0.0618    2.3844  7  7  7  1  4.0898  3.3073  
2011    283    51930.0000    0.0007   -0.0022    0.0638    2.3845  7  7  7  1  4.0902  3.3076  
2011    283    51960.0000    0.0027   -0.0046    0.0501    2.3843  7  7  7  1  4.0897  3.3074  
2011    283    51990.0000    0.0027   -0.0014    0.0520    2.3842  7  7  7  1  4.0885  3.3065  
2011    283    52020.0000    0.0048   -0.0003    0.0559    2.3838  7  7  7  1  4.0865  3.3051  
2011    283    52050.0000    0.0071   -0.0035    0.0584    2.3836  7  7  7  1  4.0837  3.3031  
2011    283    52080.0000    0.0021    0.0028    0.0565    2.3832  7  7  7  1  4.0801  3.3005  
2011    283    52110.0000    0.0006    0.0017    0.0529    2.3829  7  7  7  1  4.0758  3.2974  
2011    283    52140.0000    0.0065    0.0003    0.0586    2.3831  7  7  7  1  4.0707  3.2937  
2011    283    52170.0000    0.0068   -0.0009    0.0657    2.3835  7  7  7  1  4.0648  3.2894  
2011    283    52200.0000    0.0011    0.0001    0.0571    2.3835  7  7  7  1  4.0582  3.2845  
2011    283    52230.0000    0.0049   -0.0005    0.0538    2.3839  7  7  7  1  4.0509  3.2791  
2011    283    52260.0000    0.0052   -0.0034    0.0572    2.3838  7  7  7  1  4.0428  3.2732  
2011    283    52290.0000    0.0056   -0.0021    0.0580    2.3841  7  7  7  1  4.0341  3.2668  
2011    283    52320.0000    0.0033   -0.0004    0.0531    2.3836  7  7  7  1  4.0247  3.2598  
2011    283    52350.0000    0.0042   -0.0052    0.0539    2.3837  7  7  7  1  4.0146  3.2524  
2011    283    52380.0000    0.0036   -0.0021    0.0527    2.3833  7  7  7  1  4.0040  3.2445  
2011    283    52410.0000    0.0008   -0.0032    0.0402    2.3823  7  7  7  1  3.9927  3.2361  
2011    283    52440.0000   -0.0024   -0.0033    0.0579    2.3816  7  7  7  1  3.9808  3.2273  
2011    283    52470.0000   -0.0038   -0.0027    0.0627    2.3808  7  7  7  1  3.9683  3.2181  
2011    283    52500.0000    0.0028    0.0002    0.0804    2.3810  7  7  7  1  3.9554  3.2085  
2011    283    52530.0000    0.0015    0.0013    0.0695    2.3810  7  7  7  1  3.9419  3.1986  
2011    283    52560.0000   -0.0005   -0.0018    0.0639    2.3809  7  7  7  1  3.9279  3.1882  
2011    283    52590.0000   -0.0020   -0.0023    0.0648    2.3797  7  7  7  1  3.9135  3.1776  
2011    283    52620.0000   -0.0030   -0.0031    0.0678    2.3797  7  7  7  1  3.8987  3.1666  
2011    283    52650.0000   -0.0015   -0.0054    0.0658    2.3798  7  7  7  1  3.8834  3.1553  
2011    283    52680.0000    0.0036   -0.0022    0.0664    2.3798  7  7  7  1  3.8678  3.1438  
2011    283    52710.0000    0.0054   -0.0027    0.0869    2.3810  7  7  7  1  3.8518  3.1320  
2011    283    52740.0000    0.0030    0.0016    0.0677    2.3816  7  7  7  1  3.8356  3.1199  
2011    283    52770.0000    0.0014    0.0003    0.0847    2.3823  7  7  7  1  3.8190  3.1077  
2011    283    52800.0000    0.0044    0.0016    0.0776    2.3835  7  7  7  1  3.8022  3.0953  
2011    283    52830.0000    0.0011    0.0000    0.0592    2.3838  7  7  7  1  3.7852  3.0827  
2011    283    52860.0000    0.0031   -0.0004    0.0701    2.3845  7  7  7  1  3.7679  3.0700  
2011    283    52890.0000    0.0029   -0.0036    0.0754    2.3846  7  7  7  1  3.7505  3.0571  
2011    283    52920.0000    0.0057   -0.0047    0.0662    2.3845  7  7  7  1  3.7329  3.0442  
2011    283    52950.0000    0.0066   -0.0078    0.0690    2.3849  7  7  7  1  3.7151  3.0311  
2011    283    52980.0000    0.0066   -0.0084    0.0737    2.3851  7  7  7  1  3.6973  3.0180  
2011    283    53010.0000    0.0057   -0.0077    0.0517    2.3846  7  7  7  1  3.6794  3.0048  
2011    283    53040.0000    0.0055   -0.0090    0.0753    2.3853  7  7  7  1  3.6614  2.9916  
2011    283    53070.0000    0.0098   -0.0041    0.0705    2.3858  7  7  7  1  3.6434  2.9783  
2011    283    53100.0000    0.0093   -0.0010    0.0689    2.3860  7  7  7  1  3.6254  2.9651  
2011    283    53130.0000    0.0093    0.0003    0.0594    2.3859  8  7  7  1  2.3039  2.0231  
2011    283    53160.0000    0.0086   -0.0029    0.0676    2.3863  8  7  7  1  2.3042  2.0235  
2011    283    53190.0000    0.0015   -0.0025    0.0633    2.3867  8  7  7  1  2.3044  2.0237  
2011    283    53220.0000    0.0050   -0.0044    0.0615    2.3872  8  7  7  1  2.3045  2.0238  
2011    283    53250.0000    0.0079    0.0006    0.0719    2.3873  8  7  7  1  2.3043  2.0237  
2011    283    53280.0000    0.0078   -0.0037    0.0571    2.3874  8  7  7  1  2.3041  2.0236  
2011    283    53310.0000    0.0059   -0.0047    0.0576    2.3873  8  7  7  1  2.3036  2.0232  
2011    283    53340.0000    0.0073   -0.0015    0.0610    2.3878  8  7  7  1  2.3030  2.0228  
2011    283    53370.0000    0.0025   -0.0046    0.0612    2.3886  8  7  7  1  2.3023  2.0222  
2011    283    53400.0000    0.0027   -0.0039    0.0550    2.3890  8  7  7  1  2.3014  2.0215  
2011    283    53430.0000    0.0016   -0.0020    0.0646    2.3896  8  7  7  1  2.3003  2.0206  
2011    283    53460.0000   -0.0012   -0.0043    0.0502    2.3902  8  7  7  1  2.2991  2.0196  
2011    283    53490.0000   -0.0007   -0.0060    0.0389    2.3905  8  7  7  1  2.2977  2.0184  
2011    283    53520.0000    0.0035   -0.0027    0.0434    2.3911  8  7  7  1  2.2962  2.0172  
2011    283    53550.0000    0.0067   -0.0065    0.0402    2.3918  8  7  7  1  2.2946  2.0158  
2011    283    53580.0000    0.0043   -0.0041    0.0394    2.3928  8  7  7  1  2.2927  2.0142  
2011    283    53610.0000    0.0090   -0.0048    0.0393    2.3933  8  7  7  1  2.2908  2.0126  
2011    283    53640.0000    0.0067   -0.0053    0.0378    2.3929  8  7  7  1  2.2886  2.0108  
2011    283    53670.0000    0.0104   -0.0047    0.0425    2.3925  8  7  7  1  2.2864  2.0088  
2011    283    53700.0000    0.0059   -0.0044    0.0433    2.3923  8  7  7  1  2.2840  2.0068  
2011    283    53730.0000    0.0074   -0.0062    0.0559    2.3922  8  7  7  1  2.2815  2.0046  
2011    283    53760.0000    0.0064   -0.0092    0.0441    2.3924  8  7  7  1  2.2788  2.0023  
2011    283    53790.0000    0.0063   -0.0029    0.0520    2.3921  8  7  7  1  2.2760  1.9999  
2011    283    53820.0000    0.0073   -0.0106    0.0515    2.3926  8  8  7  1  2.2730  1.9974  
2011    283    53850.0000    0.0120   -0.0047    0.0491    2.3920  8  8  7  1  2.2700  1.9948  
2011    283    53880.0000    0.0101   -0.0076    0.0492    2.3920  8  8  7  1  2.2668  1.9920  
2011    283    53910.0000    0.0107   -0.0058    0.0481    2.3918  8  8  7  1  2.2635  1.9892  
2011    283    53940.0000    0.0089   -0.0042    0.0406    2.3913  8  8  7  1  2.2601  1.9862  
2011    283    53970.0000    0.0090   -0.0027    0.0506    2.3910  8  8  7  1  2.2566  1.9832  
2011    283    54000.0000    0.0153   -0.0098    0.0523    2.3912  8  8  7  1  2.2529  1.9801  
2011    283    54030.0000    0.0102   -0.0032    0.0549    2.3912  8  8  7  1  2.2492  1.9768  
2011    283    54060.0000    0.0117   -0.0055    0.0574    2.3923  8  8  7  1  2.2454  1.9735  
2011    283    54090.0000    0.0130   -0.0023    0.0437    2.4001  8  8  8  1  2.2415  1.9701  
2011    283    54120.0000    0.0147   -0.0007    0.0324    2.4001  8  8  8  1  2.2374  1.9666  
2011    283    54150.0000    0.0158    0.0033    0.0461    2.4009  8  8  8  1  2.2333  1.9631  
2011    283    54180.0000    0.0071    0.0001    0.0292    2.3999  8  8  8  1  2.2291  1.9594  
2011    283    54210.0000    0.0066    0.0003    0.0344    2.3994  8  8  8  1  2.2249  1.9557  
2011    283    54240.0000    0.0086    0.0009    0.0255    2.3992  8  8  8  1  2.2205  1.9519  
2011    283    54270.0000    0.0106   -0.0028    0.0235    2.3985  8  8  8  1  2.2161  1.9481  
2011    283    54300.0000    0.0051   -0.0054    0.0279    2.3983  8  8  8  1  2.2116  1.9442  
2011    283    54330.0000    0.0011   -0.0062    0.0195    2.3976  8  8  8  1  2.2071  1.9403  
2011    283    54360.0000    0.0038   -0.0028    0.0254    2.3974  8  8  8  1  2.2025  1.9362  
2011    283    54390.0000    0.0035    0.0004    0.0202    2.3971  8  8  8  1  2.1978  1.9322  
2011    283    54420.0000    0.0060   -0.0011    0.0213    2.3973  8  8  8  1  2.1931  1.9281  
2011    283    54450.0000    0.0045   -0.0067    0.0323    2.3974  8  8  8  1  2.1883  1.9240  
2011    283    54480.0000    0.0075    0.0001    0.0293    2.3976  8  8  8  1  2.1835  1.9198  
2011    283    54510.0000    0.0067   -0.0022    0.0250    2.3980  8  8  8  1  2.1787  1.9156  
2011    283    54540.0000    0.0068   -0.0028    0.0271    2.3984  8  8  8  1  2.1738  1.9113  
2011    283    54570.0000    0.0051   -0.0039    0.0216    2.3987  8  8  8  1  2.1689  1.9070  
2011    283    54600.0000    0.0028   -0.0016    0.0301    2.3988  8  8  8  1  2.1639  1.9027  
2011    283    54630.0000    0.0053   -0.0049    0.0343    2.3995  8  8  8  1  2.1590  1.8984  
2011    283    54660.0000    0.0101   -0.0017    0.0196    2.4001  8  8  8  1  2.1540  1.8941  
2011    283    54690.0000    0.0122    0.0006    0.0162    2.4006  8  8  8  1  2.1490  1.8897  
2011    283    54720.0000    0.0077   -0.0008    0.0010    2.4009  8  8  8  1  2.1439  1.8853  
2011    283    54750.0000    0.0048   -0.0035    0.0032    2.4012  8  8  8  1  2.1389  1.8809  
2011    283    54780.0000    0.0065   -0.0024    0.0140    2.4020  8  8  8  1  2.1338  1.8765  
2011    283    54810.0000    0.0078    0.0001    0.0049    2.4020  8  8  8  1  2.1288  1.8721  
2011    283    54840.0000    0.0071    0.0026    0.0018    2.4023  8  8  8  1  2.1237  1.8677  
2011    283    54870.0000    0.0066    0.0025    0.0021    2.4018  8  8  8  1  2.1187  1.8633  
2011    283    54900.0000    0.0068   -0.0002    0.0140    2.4019  8  8  8  1  2.1136  1.8589  
2011    283    54930.0000   -0.0018   -0.0005    0.0054    2.4016  8  8  8  1  2.1085  1.8545  
2011    283    54960.0000    0.0041    0.0007   -0.0001    2.4015  8  8  8  1  2.1035  1.8501  
2011    283    54990.0000    0.0040   -0.0010   -0.0012    2.4014  8  8  8  1  2.0984  1.8457  
2011    283    55020.0000    0.0088   -0.0004   -0.0038    2.4018  9  8  8  1  1.7672  1.5568  
2011    283    55050.0000    0.0069    0.0057   -0.0068    2.4018  9  8  8  1  1.7687  1.5578  
2011    283    55080.0000    0.0034    0.0021    0.0000    2.4016  9  8  8  1  1.7701  1.5588  
2011    283    55110.0000   -0.0015    0.0020   -0.0008    2.4006  9  8  8  1  1.7714  1.5598  
2011    283    55140.0000    0.0019    0.0027   -0.0003    2.3999  9  8  8  1  1.7728  1.5608  
2011    283    55170.0000   -0.0027    0.0017    0.0044    2.3997  9  8  8  1  1.7742  1.5617  
2011    283    55200.0000    0.0008   -0.0009    0.0134    2.3993  8  7  7  1  2.0098  1.7437  
2011    283    55230.0000    0.0020    0.0002   -0.0001    2.3991  8  7  7  1  2.0121  1.7452  
2011    283    55260.0000    0.0012    0.0014   -0.0004    2.3989  8  7  7  1  2.0143  1.7467  
2011    283    55290.0000    0.0045    0.0042   -0.0098    2.3988  8  7  7  1  2.0165  1.7482  
2011    283    55320.0000    0.0048    0.0035    0.0059    2.3989  8  7  7  1  2.0188  1.7497  
2011    283    55350.0000    0.0008    0.0052    0.0156    2.3988  8  7  7  1  2.0210  1.7512  
2011    283    55380.0000    0.0039   -0.0009    0.0078    2.3986  8  7  7  1  2.0232  1.7528  
2011    283    55410.0000   -0.0020   -0.0041    0.0189    2.3985  8  7  7  1  2.0255  1.7543  
2011    283    55440.0000    0.0030   -0.0069    0.0025    2.3965  8  7  6  1  2.0277  1.7558  
2011    283    55470.0000    0.0032   -0.0045    0.0071    2.4042  8  8  8  1  2.0299  1.7573  
2011    283    55500.0000   -0.0008   -0.0055    0.0098    2.4048  8  8  8  1  2.0321  1.7589  
2011    283    55530.0000   -0.0013    0.0029   -0.0034    2.3982  8  7  7  1  2.0342  1.7604  
2011    283    55560.0000    0.0038    0.0073    0.0023    2.3980  8  7  7  1  2.0364  1.7619  
2011    283    55590.0000    0.0048    0.0034    0.0081    2.3979  8  7  7  1  2.0386  1.7634  
2011    283    55620.0000    0.0032    0.0071   -0.0025    2.3976  8  7  7  1  2.0407  1.7649  
2011    283    55650.0000    0.0002    0.0009    0.0002    2.4060  8  8  8  1  2.0428  1.7664  
2011    283    55680.0000    0.0022   -0.0065   -0.0111    2.4065  9  8  8  1  1.8471  1.6127  
2011    283    55710.0000    0.0051    0.0011   -0.0139    2.4069  9  8  8  1  1.8489  1.6140  
2011    283    55740.0000    0.0057   -0.0044   -0.0094    2.4071  9  8  8  1  1.8508  1.6154  
2011    283    55770.0000    0.0024   -0.0006   -0.0165    2.4070  9  8  8  1  1.8526  1.6169  
2011    283    55800.0000    0.0014    0.0038   -0.0091    2.4069  9  8  8  1  1.8545  1.6183  
2011    283    55830.0000    0.0005   -0.0024   -0.0048    2.4074  9  8  8  1  1.8564  1.6197  
2011    283    55860.0000   -0.0027    0.0006    0.0084    2.3977  9  7  7  1  1.8583  1.6212  
2011    283    55890.0000   -0.0036   -0.0019    0.0046    2.3980  9  7  7  1  1.8602  1.6227  
2011    283    55920.0000   -0.0031   -0.0039   -0.0193    2.4096  9  8  8  1  1.8621  1.6242  
2011    283    55950.0000    0.0014   -0.0054   -0.0155    2.4102  9  8  8  1  1.8640  1.6257  
2011    283    55980.0000    0.0043   -0.0059   -0.0177    2.4107  9  8  8  1  1.8659  1.6272  
2011    283    56010.0000    0.0046   -0.0088   -0.0248    2.4109  9  8  8  1  1.8678  1.6287  
2011    283    56040.0000    0.0048   -0.0040   -0.0299    2.4113  9  8  8  1  1.8697  1.6302  
2011    283    56070.0000    0.0086    0.0021   -0.0319    2.4114  9  8  8  1  1.8716  1.6317  
2011    283    56100.0000    0.0023   -0.0009   -0.0273    2.4113  9  8  8  1  1.8735  1.6332  
2011    283    56130.0000    0.0043    0.0071   -0.0310    2.4111  9  8  8  1  1.8754  1.6348  
2011    283    56160.0000    0.0037    0.0008   -0.0250    2.4111  9  8  8  1  1.8773  1.6363  
2011    283    56190.0000    0.0000   -0.0011   -0.0362    2.4111  9  8  8  1  1.8792  1.6378  
2011    283    56220.0000    0.0017    0.0008   -0.0343    2.4111  9  8  8  1  1.8811  1.6393  
2011    283    56250.0000    0.0028    0.0034   -0.0371    2.4111  9  8  8  1  1.8829  1.6409  
2011    283    56280.0000    0.0030   -0.0038   -0.0297    2.4113  9  8  8  1  1.8848  1.6424  
2011    283    56310.0000    0.0069    0.0030   -0.0388    2.4110  9  8  8  1  1.8866  1.6439  
2011    283    56340.0000   -0.0045    0.0013   -0.0210    2.4111  9  8  8  1  1.8884  1.6454  
2011    283    56370.0000   -0.0046   -0.0042   -0.0279    2.4113  9  8  8  1  1.8902  1.6469  
2011    283    56400.0000   -0.0025    0.0001   -0.0240    2.4111  9  8  8  1  1.8920  1.6484  
2011    283    56430.0000   -0.0015   -0.0014   -0.0319    2.4108  9  8  8  1  1.8938  1.6498  
2011    283    56460.0000   -0.0023   -0.0027   -0.0278    2.4106  9  8  8  1  1.8955  1.6513  
2011    283    56490.0000   -0.0039   -0.0052   -0.0271    2.4102  9  8  8  1  1.8972  1.6528  
2011    283    56520.0000   -0.0006   -0.0005   -0.0378    2.4095  9  8  8  1  1.8989  1.6542  
2011    283    56550.0000   -0.0029    0.0006   -0.0204    2.4087  9  8  8  1  1.9006  1.6556  
2011    283    56580.0000   -0.0068   -0.0052   -0.0246    2.4082  9  8  8  1  1.9022  1.6570  
2011    283    56610.0000   -0.0086   -0.0023   -0.0295    2.4078  9  8  8  1  1.9038  1.6584  
2011    283    56640.0000    0.0030   -0.0039   -0.0281    2.4074  9  8  8  1  1.9054  1.6597  
2011    283    56670.0000    0.0009   -0.0053   -0.0244    2.4070  9  8  8  1  1.9069  1.6610  
2011    283    56700.0000    0.0013   -0.0066   -0.0198    2.4069  9  8  8  1  1.9084  1.6624  
2011    283    56730.0000   -0.0047   -0.0026   -0.0246    2.4062  9  8  8  1  1.9099  1.6636  
2011    283    56760.0000   -0.0060   -0.0022   -0.0285    2.4056  9  8  8  1  1.9113  1.6649  
2011    283    56790.0000   -0.0050   -0.0026   -0.0316    2.4051  9  8  8  1  1.9126  1.6661  
2011    283    56820.0000   -0.0003   -0.0019   -0.0226    2.4042  9  8  8  1  1.9140  1.6673  
2011    283    56850.0000   -0.0027   -0.0008   -0.0274    2.4037  9  8  8  1  1.9153  1.6684  
2011    283    56880.0000   -0.0019   -0.0002   -0.0187    2.4028  9  8  8  1  1.9165  1.6696  
2011    283    56910.0000    0.0009   -0.0014   -0.0189    2.4013  9  8  8  1  1.9177  1.6706  
2011    283    56940.0000    0.0047    0.0005   -0.0654    2.4165  9  9  9  1  1.9188  1.6717  
2011    283    56970.0000    0.0042    0.0008   -0.0508    2.4150  9  9  9  1  1.9199  1.6727  
2011    283    57000.0000    0.0032   -0.0003   -0.0517    2.4132  9  9  9  1  1.9209  1.6737  
2011    283    57030.0000    0.0032   -0.0030   -0.0402    2.4115  9  9  9  1  1.9219  1.6746  
2011    283    57060.0000    0.0023   -0.0010   -0.0418    2.4099  9  9  9  1  1.9228  1.6755  
2011    283    57090.0000    0.0120   -0.0018   -0.0391    2.4081  9  9  9  1  1.9237  1.6763  
2011    283    57120.0000    0.0052   -0.0009   -0.0175    2.4064  9  9  9  1  1.9245  1.6771  
2011    283    57150.0000    0.0044   -0.0078   -0.0075    2.4047  9  9  9  1  1.9252  1.6779  
2011    283    57180.0000    0.0058   -0.0048   -0.0098    2.4032  9  9  9  1  1.9259  1.6786  
2011    283    57210.0000    0.0037   -0.0037   -0.0141    2.4023  9  9  9  1  1.9265  1.6792  
2011    283    57240.0000    0.0062   -0.0013   -0.0071    2.4013  9  9  9  1  1.9270  1.6798  
2011    283    57270.0000    0.0094    0.0002   -0.0085    2.4000  9  9  9  1  1.9275  1.6804  
2011    283    57300.0000    0.0040   -0.0004    0.0054    2.3990  9  9  9  1  1.9279  1.6809  
2011    283    57330.0000   -0.0021   -0.0035    0.0054    2.3982  9  9  9  1  1.9283  1.6813  
2011    283    57360.0000   -0.0027   -0.0015    0.0100    2.3976  9  9  9  1  1.9286  1.6817  
2011    283    57390.0000   -0.0019   -0.0022   -0.0013    2.3964  9  9  9  1  1.9288  1.6820  
2011    283    57420.0000   -0.0039   -0.0028    0.0028    2.3956  9  9  9  1  1.9289  1.6823  
2011    283    57450.0000    0.0005   -0.0026    0.0102    2.3948  9  9  9  1  1.9290  1.6825  
2011    283    57480.0000    0.0005   -0.0062    0.0210    2.3943  9  9  9  1  1.9290  1.6827  
2011    283    57510.0000   -0.0037   -0.0040    0.0135    2.3936  9  9  9  1  1.9289  1.6828  
2011    283    57540.0000   -0.0001   -0.0037    0.0006    2.3934  9  9  9  1  1.9288  1.6829  
2011    283    57570.0000   -0.0037   -0.0028    0.0032    2.3931  9  9  9  1  1.9285  1.6829  
2011    283    57600.0000    0.0017   -0.0023    0.0009    2.3932  9  9  9  1  1.9282  1.6828  
