/Users/shjzhang/Documents/Data/IGS/data/abpo2833.11o.out.04h.fix.kin
/Users/shjzhang/Documents/Data/IGS/data/abpo2841.11o.out.04h.fix.kin
/Users/shjzhang/Documents/Data/IGS/data/abpo2844.11o.out.04h.fix.kin
/Users/shjzhang/Documents/Data/IGS/data/abpo2854.11o.out.04h.fix.kin
/Users/shjzhang/Documents/Data/IGS/data/abpo2861.11o.out.04h.fix.kin
/Users/shjzhang/Documents/Data/IGS/data/abpo2866.11o.out.04h.fix.kin
/Users/shjzhang/Documents/Data/IGS/data/adis2821.11o.out.04h.fix.kin
/Users/shjzhang/Documents/Data/IGS/data/adis2836.11o.out.04h.fix.kin
/Users/shjzhang/Documents/Data/IGS/data/adis2846.11o.out.04h.fix.kin
/Users/shjzhang/Documents/Data/IGS/data/adis2854.11o.out.04h.fix.kin
/Users/shjzhang/Documents/Data/IGS/data/adis2856.11o.out.04h.fix.kin
/Users/shjzhang/Documents/Data/IGS/data/adis2863.11o.out.04h.fix.kin
/Users/shjzhang/Documents/Data/IGS/data/adis2866.11o.out.04h.fix.kin
/Users/shjzhang/Documents/Data/IGS/data/adis2873.11o.out.04h.fix.kin
/Users/shjzhang/Documents/Data/IGS/data/adis2874.11o.out.04h.fix.kin
/Users/shjzhang/Documents/Data/IGS/data/amc22822.11o.out.04h.fix.kin
/Users/shjzhang/Documents/Data/IGS/data/amc22824.11o.out.04h.fix.kin
/Users/shjzhang/Documents/Data/IGS/data/amc22825.11o.out.04h.fix.kin
/Users/shjzhang/Documents/Data/IGS/data/amc22843.11o.out.04h.fix.kin
/Users/shjzhang/Documents/Data/IGS/data/amc22845.11o.out.04h.fix.kin
/Users/shjzhang/Documents/Data/IGS/data/amc22865.11o.out.04h.fix.kin
/Users/shjzhang/Documents/Data/IGS/data/amc22875.11o.out.04h.fix.kin
/Users/shjzhang/Documents/Data/IGS/data/areq2825.11o.out.04h.fix.kin
/Users/shjzhang/Documents/Data/IGS/data/areq2854.11o.out.04h.fix.kin
/Users/shjzhang/Documents/Data/IGS/data/areq2855.11o.out.04h.fix.kin
/Users/shjzhang/Documents/Data/IGS/data/areq2862.11o.out.04h.fix.kin
/Users/shjzhang/Documents/Data/IGS/data/areq2865.11o.out.04h.fix.kin
/Users/shjzhang/Documents/Data/IGS/data/areq2874.11o.out.04h.fix.kin
/Users/shjzhang/Documents/Data/IGS/data/bjnm2822.11o.out.04h.fix.kin
/Users/shjzhang/Documents/Data/IGS/data/bjnm2832.11o.out.04h.fix.kin
/Users/shjzhang/Documents/Data/IGS/data/bjnm2842.11o.out.04h.fix.kin
/Users/shjzhang/Documents/Data/IGS/data/bjnm2845.11o.out.04h.fix.kin
/Users/shjzhang/Documents/Data/IGS/data/bjnm2855.11o.out.04h.fix.kin
/Users/shjzhang/Documents/Data/IGS/data/bjnm2862.11o.out.04h.fix.kin
/Users/shjzhang/Documents/Data/IGS/data/brus2824.11o.out.04h.fix.kin
/Users/shjzhang/Documents/Data/IGS/data/brus2844.11o.out.04h.fix.kin
/Users/shjzhang/Documents/Data/IGS/data/brus2854.11o.out.04h.fix.kin
/Users/shjzhang/Documents/Data/IGS/data/brus2864.11o.out.04h.fix.kin
/Users/shjzhang/Documents/Data/IGS/data/cagz2861.11o.out.04h.fix.kin
/Users/shjzhang/Documents/Data/IGS/data/cagz2873.11o.out.04h.fix.kin
/Users/shjzhang/Documents/Data/IGS/data/cagz2876.11o.out.04h.fix.kin
/Users/shjzhang/Documents/Data/IGS/data/gold2826.11o.out.04h.fix.kin
/Users/shjzhang/Documents/Data/IGS/data/gold2841.11o.out.04h.fix.kin
/Users/shjzhang/Documents/Data/IGS/data/harb2824.11o.out.04h.fix.kin
/Users/shjzhang/Documents/Data/IGS/data/harb2833.11o.out.04h.fix.kin
/Users/shjzhang/Documents/Data/IGS/data/harb2844.11o.out.04h.fix.kin
/Users/shjzhang/Documents/Data/IGS/data/harb2853.11o.out.04h.fix.kin
/Users/shjzhang/Documents/Data/IGS/data/harb2864.11o.out.04h.fix.kin
/Users/shjzhang/Documents/Data/IGS/data/harb2874.11o.out.04h.fix.kin
/Users/shjzhang/Documents/Data/IGS/data/holm2822.11o.out.04h.fix.kin
/Users/shjzhang/Documents/Data/IGS/data/holm2832.11o.out.04h.fix.kin
/Users/shjzhang/Documents/Data/IGS/data/holm2836.11o.out.04h.fix.kin
/Users/shjzhang/Documents/Data/IGS/data/holm2842.11o.out.04h.fix.kin
/Users/shjzhang/Documents/Data/IGS/data/holm2852.11o.out.04h.fix.kin
/Users/shjzhang/Documents/Data/IGS/data/holm2871.11o.out.04h.fix.kin
/Users/shjzhang/Documents/Data/IGS/data/holm2874.11o.out.04h.fix.kin
/Users/shjzhang/Documents/Data/IGS/data/kokb2821.11o.out.04h.fix.kin
/Users/shjzhang/Documents/Data/IGS/data/kokb2823.11o.out.04h.fix.kin
/Users/shjzhang/Documents/Data/IGS/data/kokb2841.11o.out.04h.fix.kin
/Users/shjzhang/Documents/Data/IGS/data/kokb2851.11o.out.04h.fix.kin
/Users/shjzhang/Documents/Data/IGS/data/kokb2853.11o.out.04h.fix.kin
/Users/shjzhang/Documents/Data/IGS/data/kokb2861.11o.out.04h.fix.kin
/Users/shjzhang/Documents/Data/IGS/data/kokb2864.11o.out.04h.fix.kin
/Users/shjzhang/Documents/Data/IGS/data/kokb2865.11o.out.04h.fix.kin
/Users/shjzhang/Documents/Data/IGS/data/kokb2874.11o.out.04h.fix.kin
/Users/shjzhang/Documents/Data/IGS/data/lhaz2833.11o.out.04h.fix.kin
/Users/shjzhang/Documents/Data/IGS/data/lhaz2876.11o.out.04h.fix.kin
/Users/shjzhang/Documents/Data/IGS/data/mkea2821.11o.out.04h.fix.kin
/Users/shjzhang/Documents/Data/IGS/data/mkea2823.11o.out.04h.fix.kin
/Users/shjzhang/Documents/Data/IGS/data/mkea2833.11o.out.04h.fix.kin
/Users/shjzhang/Documents/Data/IGS/data/mkea2841.11o.out.04h.fix.kin
/Users/shjzhang/Documents/Data/IGS/data/mkea2843.11o.out.04h.fix.kin
/Users/shjzhang/Documents/Data/IGS/data/mkea2853.11o.out.04h.fix.kin
/Users/shjzhang/Documents/Data/IGS/data/mkea2861.11o.out.04h.fix.kin
/Users/shjzhang/Documents/Data/IGS/data/mkea2863.11o.out.04h.fix.kin
/Users/shjzhang/Documents/Data/IGS/data/mkea2872.11o.out.04h.fix.kin
/Users/shjzhang/Documents/Data/IGS/data/mkea2874.11o.out.04h.fix.kin
/Users/shjzhang/Documents/Data/IGS/data/opmt2824.11o.out.04h.fix.kin
/Users/shjzhang/Documents/Data/IGS/data/opmt2832.11o.out.04h.fix.kin
/Users/shjzhang/Documents/Data/IGS/data/opmt2841.11o.out.04h.fix.kin
/Users/shjzhang/Documents/Data/IGS/data/opmt2852.11o.out.04h.fix.kin
/Users/shjzhang/Documents/Data/IGS/data/opmt2853.11o.out.04h.fix.kin
/Users/shjzhang/Documents/Data/IGS/data/opmt2862.11o.out.04h.fix.kin
/Users/shjzhang/Documents/Data/IGS/data/opmt2871.11o.out.04h.fix.kin
/Users/shjzhang/Documents/Data/IGS/data/palv2823.11o.out.04h.fix.kin
/Users/shjzhang/Documents/Data/IGS/data/palv2824.11o.out.04h.fix.kin
/Users/shjzhang/Documents/Data/IGS/data/palv2825.11o.out.04h.fix.kin
/Users/shjzhang/Documents/Data/IGS/data/palv2845.11o.out.04h.fix.kin
/Users/shjzhang/Documents/Data/IGS/data/palv2854.11o.out.04h.fix.kin
/Users/shjzhang/Documents/Data/IGS/data/palv2855.11o.out.04h.fix.kin
/Users/shjzhang/Documents/Data/IGS/data/palv2864.11o.out.04h.fix.kin
/Users/shjzhang/Documents/Data/IGS/data/palv2865.11o.out.04h.fix.kin
/Users/shjzhang/Documents/Data/IGS/data/qaq12824.11o.out.04h.fix.kin
/Users/shjzhang/Documents/Data/IGS/data/qaq12834.11o.out.04h.fix.kin
/Users/shjzhang/Documents/Data/IGS/data/qaq12844.11o.out.04h.fix.kin
/Users/shjzhang/Documents/Data/IGS/data/qaq12855.11o.out.04h.fix.kin
/Users/shjzhang/Documents/Data/IGS/data/qaq12864.11o.out.04h.fix.kin
/Users/shjzhang/Documents/Data/IGS/data/qaq12874.11o.out.04h.fix.kin
/Users/shjzhang/Documents/Data/IGS/data/qaq12875.11o.out.04h.fix.kin
/Users/shjzhang/Documents/Data/IGS/data/rabt2825.11o.out.04h.fix.kin
/Users/shjzhang/Documents/Data/IGS/data/rabt2826.11o.out.04h.fix.kin
/Users/shjzhang/Documents/Data/IGS/data/rabt2834.11o.out.04h.fix.kin
/Users/shjzhang/Documents/Data/IGS/data/rabt2836.11o.out.04h.fix.kin
/Users/shjzhang/Documents/Data/IGS/data/rabt2844.11o.out.04h.fix.kin
/Users/shjzhang/Documents/Data/IGS/data/rabt2846.11o.out.04h.fix.kin
/Users/shjzhang/Documents/Data/IGS/data/rabt2854.11o.out.04h.fix.kin
/Users/shjzhang/Documents/Data/IGS/data/rabt2855.11o.out.04h.fix.kin
/Users/shjzhang/Documents/Data/IGS/data/rabt2856.11o.out.04h.fix.kin
/Users/shjzhang/Documents/Data/IGS/data/rabt2864.11o.out.04h.fix.kin
/Users/shjzhang/Documents/Data/IGS/data/rabt2866.11o.out.04h.fix.kin
/Users/shjzhang/Documents/Data/IGS/data/reyk2824.11o.out.04h.fix.kin
/Users/shjzhang/Documents/Data/IGS/data/reyk2831.11o.out.04h.fix.kin
/Users/shjzhang/Documents/Data/IGS/data/reyk2835.11o.out.04h.fix.kin
/Users/shjzhang/Documents/Data/IGS/data/reyk2854.11o.out.04h.fix.kin
/Users/shjzhang/Documents/Data/IGS/data/reyk2861.11o.out.04h.fix.kin
/Users/shjzhang/Documents/Data/IGS/data/shao2852.11o.out.04h.fix.kin
/Users/shjzhang/Documents/Data/IGS/data/sydn2824.11o.out.04h.fix.kin
/Users/shjzhang/Documents/Data/IGS/data/sydn2831.11o.out.04h.fix.kin
/Users/shjzhang/Documents/Data/IGS/data/sydn2834.11o.out.04h.fix.kin
/Users/shjzhang/Documents/Data/IGS/data/sydn2842.11o.out.04h.fix.kin
/Users/shjzhang/Documents/Data/IGS/data/sydn2846.11o.out.04h.fix.kin
/Users/shjzhang/Documents/Data/IGS/data/sydn2862.11o.out.04h.fix.kin
/Users/shjzhang/Documents/Data/IGS/data/sydn2864.11o.out.04h.fix.kin
/Users/shjzhang/Documents/Data/IGS/data/sydn2874.11o.out.04h.fix.kin
/Users/shjzhang/Documents/Data/IGS/data/tnml2822.11o.out.04h.fix.kin
/Users/shjzhang/Documents/Data/IGS/data/tnml2832.11o.out.04h.fix.kin
/Users/shjzhang/Documents/Data/IGS/data/tnml2835.11o.out.04h.fix.kin
/Users/shjzhang/Documents/Data/IGS/data/unbj2855.11o.out.04h.fix.kin
/Users/shjzhang/Documents/Data/IGS/data/unbj2862.11o.out.04h.fix.kin
/Users/shjzhang/Documents/Data/IGS/data/unbj2864.11o.out.04h.fix.kin
/Users/shjzhang/Documents/Data/IGS/data/unbj2872.11o.out.04h.fix.kin
/Users/shjzhang/Documents/Data/IGS/data/unbj2874.11o.out.04h.fix.kin
/Users/shjzhang/Documents/Data/IGS/data/usud2822.11o.out.04h.fix.kin
/Users/shjzhang/Documents/Data/IGS/data/usud2835.11o.out.04h.fix.kin
/Users/shjzhang/Documents/Data/IGS/data/usud2842.11o.out.04h.fix.kin
/Users/shjzhang/Documents/Data/IGS/data/usud2844.11o.out.04h.fix.kin
/Users/shjzhang/Documents/Data/IGS/data/usud2862.11o.out.04h.fix.kin
/Users/shjzhang/Documents/Data/IGS/data/usud2863.11o.out.04h.fix.kin
/Users/shjzhang/Documents/Data/IGS/data/usud2865.11o.out.04h.fix.kin
/Users/shjzhang/Documents/Data/IGS/data/usud2873.11o.out.04h.fix.kin
/Users/shjzhang/Documents/Data/IGS/data/usud2874.11o.out.04h.fix.kin
/Users/shjzhang/Documents/Data/IGS/data/usud2876.11o.out.04h.fix.kin
/Users/shjzhang/Documents/Data/IGS/data/whit2823.11o.out.04h.fix.kin
/Users/shjzhang/Documents/Data/IGS/data/whit2841.11o.out.04h.fix.kin
/Users/shjzhang/Documents/Data/IGS/data/whit2842.11o.out.04h.fix.kin
/Users/shjzhang/Documents/Data/IGS/data/whit2846.11o.out.04h.fix.kin
/Users/shjzhang/Documents/Data/IGS/data/whit2853.11o.out.04h.fix.kin
/Users/shjzhang/Documents/Data/IGS/data/whit2855.11o.out.04h.fix.kin
/Users/shjzhang/Documents/Data/IGS/data/will2853.11o.out.04h.fix.kin
/Users/shjzhang/Documents/Data/IGS/data/will2863.11o.out.04h.fix.kin
/Users/shjzhang/Documents/Data/IGS/data/will2874.11o.out.04h.fix.kin
/Users/shjzhang/Documents/Data/IGS/data/wsrt2823.11o.out.04h.fix.kin
/Users/shjzhang/Documents/Data/IGS/data/wsrt2824.11o.out.04h.fix.kin
/Users/shjzhang/Documents/Data/IGS/data/wsrt2834.11o.out.04h.fix.kin
/Users/shjzhang/Documents/Data/IGS/data/wsrt2845.11o.out.04h.fix.kin
/Users/shjzhang/Documents/Data/IGS/data/wsrt2852.11o.out.04h.fix.kin
/Users/shjzhang/Documents/Data/IGS/data/wsrt2864.11o.out.04h.fix.kin
/Users/shjzhang/Documents/Data/IGS/data/wsrt2874.11o.out.04h.fix.kin
