540
840
870
810
900
810
1200
2040
840
690
690
1140
2370
2160
1170
810
3480
1170
780
1080
1380
570
870
1020
1050
2910
1350
840
3330
2310
1260
510
1710
5070
1110
3600
1050
2010
1050
870
990
420
1020
1290
780
1800
840
2280
840
1770
960
2130
1260
2490
1350
3480
1080
3000
1620
2940
1110
450
480
1860
2400
1320
990
660
1710
1170
540
720
1230
2820
1230
1320
1500
990
1020
1260
1020
840
1440
480
1680
3270
1770
1020
960
1620
1470
1530
1050
2190
600
810
1230
1950
930
3300
720
1080
570
960
390
2820
450
1200
930
510
4440
930
810
1620
1350
600
810
450
720
420
1380
570
450
600
2850
990
540
1080
390
630
330
960
840
1230
2100
960
1410
480
570
660
2430
1530
720
1920
870
1020
2790
480
1650
1770
1050
780
960
1350
2040
2430
1800
1350
540
1290
480
1440
1260
990
510
1050
990
1410
900
810
2580
2460
870
1140
1410
780
480
480
540
810
1650
1230
780
930
1470
660
1320
780
720
1140
1710
450
840
1530
360
1380
930
600
780
2100
3930
2760
2190
990
1050
810
1890
840
1800
720
930
2340
660
1740
450
690
1770
870
1770
900
690
690
840
630
1200
840
1140
540
2130
1110
870
630
780
2880
930
1560
720
1350
840
3090
480
1500
780
1620
660
870
780
1470
660
1500
390
810
900
1170
960
1200
1470
510
840
2070
600
1110
1290
570
1380
1770
990
1260
1350
810
690
720
2730
810
540
420
840
750
1290
990
570
1890
510
630
480
630
1350
420
1140
930
1170
960
1140
900
480
2640
450
690
1350
960
780
1020
510
1050
450
810
630
1380
510
600
1170
630
2400
420
780
1380
870
1440
1080
390
1170
570
1260
2520
1200
990
1950
870
2220
1080
990
840
810
1980
300
660
480
330
1650
600
1230
1800
3120
2040
4950
960
450
1230
1740
870
870
5190
2010
690
480
1500
2340
390
1710
1260
1140
2070
870
480
1440
1230
1320
1020
1380
1410
510
1410
900
1890
630
750
2310
600
1560
750
930
750
1020
1440
270
840
840
990
510
360
1170
810
840
690
450
570
420
690
600
1050
720
540
930
690
600
2280
600
1980
690
1080
690
2040
4620
360
570
510
690
3810
1200
750
1980
750
2160
690
1860
1770
1170
1080
1140
1200
1260
1260
1020
960
900
720
690
390
600
990
2190
990
750
660
390
960
810
420
420
420
540
1500
450
330
480
330
420
840
600
540
540
480
1110
870
630
510
570
420
1920
900
360
390
450
510
2370
690
1800
750
780
870
600
1410
450
810
570
690
2100
660
840
630
1830
1320
840
810
540
690
570
1020
1020
540
840
660
810
990
2610
2010
1260
780
720
1470
2160
1680
1140
660
420
810
1140
1170
450
510
540
360
420
480
270
660
600
570
360
1170
1830
660
450
810
870
720
1020
420
2970
930
1200
750
1230
1140
900
1800
2250
1290
630
330
1530
1530
840
1560
960
1080
660
2580
1080
2460
1860
840
1380
1140
630
1290
750
2250
750
2880
660
870
360
1680
450
570
1500
1920
750
1140
2310
1500
2100
1230
1710
570
930
1440
1740
960
1350
690
990
630
1380
1380
1020
330
840
570
1080
1320
1620
660
960
810
630
840
3330
1080
420
990
2190
690
1110
1410
870
720
1980
750
2670
1020
630
1230
960
1830
1590
810
1140
2670
1320
2010
960
960
2130
2730
870
1110
390
480
3930
1560
570
660
810
1350
2400
3000
510
1410
1350
960
810
1620
1170
1140
750
900
720
1020
960
960
570
570
510
1170
480
1050
750
990
990
1500
510
720
720
540
900
2400
1620
1140
930
2130
1080
2010
1050
600
1020
1320
960
870
690
1080
360
990
660
630
630
990
480
540
660
600
750
2400
660
330
870
1170
1200
480
4320
750
3030
720
1380
600
1140
660
1290
900
1080
1230
1020
810
810
1500
900
540
690
570
660
1350
3360
4440
3000
870
600
780
2250
3330
2280
2070
570
750
1020
1620
870
510
840
450
600
720
750
450
750
480
570
450
480
480
900
480
360
780
1500
660
960
1350
600
360
1770
600
2310
900
630
840
720
510
3390
1080
840
780
960
1710
390
780
510
630
720
330
570
690
510
480
780
840
420
330
720
960
480
450
720
630
1200
240
540
450
690
570
990
780
780
750
540
1260
510
240
240
330
1560
270
1470
1560
1830
420
1230
900
1200
480
390
570
300
930
600
360
450
570
360
1710
1350
450
