# col  1 -  3: year/doy/sod 
# col  4 -  7: dN/dE/dU/ZTD 
# col  8 - 11: TotalSatNumber/Converged/GDOP/PDOP 
# END OF HEADER
2011    283    43200.0000    0.3706   -0.4757   -5.5765    4.5979  9  0  2.0020  1.7859  
2011    283    43230.0000   -0.1182   -0.3205   -2.4274    3.2221  9  0  2.0056  1.7888  
2011    283    43260.0000    0.0217   -0.4976   -1.1592    2.9285  9  0  2.0091  1.7916  
2011    283    43290.0000    0.1041   -0.3063   -0.8475    2.9107  9  0  2.0126  1.7945  
2011    283    43320.0000    0.2048   -0.2257   -0.6566    2.8084  9  0  2.0160  1.7973  
2011    283    43350.0000    0.1112    0.0230   -0.4597    2.7244  9  0  2.0195  1.8001  
2011    283    43380.0000    0.1080    0.1613   -0.2699    2.5379  9  0  2.0229  1.8028  
2011    283    43410.0000    0.0583    0.2007   -0.2127    2.4847  9  0  2.0262  1.8055  
2011    283    43440.0000    0.0252    0.2824   -0.1048    2.4373  9  0  2.0296  1.8082  
2011    283    43470.0000    0.0085    0.2279    0.1032    2.4235  9  0  2.0329  1.8109  
2011    283    43500.0000   -0.0267    0.2056    0.2735    2.4056  9  0  2.0361  1.8136  
2011    283    43530.0000   -0.0428    0.2423    0.3504    2.3853  9  0  2.0393  1.8162  
2011    283    43560.0000   -0.0463    0.2687    0.3068    2.3973  9  0  2.0425  1.8187  
2011    283    43590.0000   -0.0809    0.3048    0.3209    2.3918  9  0  2.0457  1.8213  
2011    283    43620.0000   -0.0778    0.2794    0.2592    2.3883  9  0  2.0488  1.8238  
2011    283    43650.0000   -0.0821    0.2232    0.2135    2.3817  9  0  2.0519  1.8263  
2011    283    43680.0000   -0.0554    0.1459    0.1106    2.3949  9  0  2.0549  1.8287  
2011    283    43710.0000   -0.0614    0.1994    0.1121    2.3932  9  0  2.0579  1.8311  
2011    283    43740.0000   -0.0508    0.2509    0.0777    2.3917  9  0  2.0608  1.8335  
2011    283    43770.0000   -0.0387    0.2340    0.0325    2.3970  9  0  2.0637  1.8358  
2011    283    43800.0000   -0.0369    0.1978    0.0368    2.4000  9  0  2.0666  1.8381  
2011    283    43830.0000   -0.0250    0.1945   -0.0152    2.4082  9  0  2.0694  1.8404  
2011    283    43860.0000   -0.0359    0.1872   -0.0083    2.4106  9  0  2.0722  1.8426  
2011    283    43890.0000   -0.0336    0.1927   -0.0117    2.4118  9  0  2.0749  1.8448  
2011    283    43920.0000   -0.0362    0.2297   -0.0297    2.4090  9  0  2.0775  1.8469  
2011    283    43950.0000   -0.0318    0.2512   -0.0540    2.4084  9  0  2.0802  1.8490  
2011    283    43980.0000   -0.0283    0.2535   -0.0739    2.4123  9  0  2.0827  1.8511  
2011    283    44010.0000   -0.0137    0.2616   -0.0698    2.4103  9  0  2.0853  1.8531  
2011    283    44040.0000   -0.0019    0.2645   -0.0705    2.4090  9  0  2.0878  1.8551  
2011    283    44070.0000   -0.0026    0.2494   -0.0524    2.4076  9  0  2.0902  1.8571  
2011    283    44100.0000    0.0011    0.2170   -0.0420    2.4069  9  0  2.0926  1.8590  
2011    283    44130.0000   -0.0040    0.2441   -0.0344    2.4038  9  0  2.0949  1.8608  
2011    283    44160.0000   -0.0130    0.2407   -0.0109    2.4011  9  0  2.0972  1.8627  
2011    283    44190.0000   -0.0197    0.2412    0.0147    2.3964  9  0  2.0994  1.8645  
2011    283    44220.0000   -0.0289    0.2703    0.0380    2.3934  9  0  2.1016  1.8662  
2011    283    44250.0000   -0.0346    0.2986    0.0616    2.3895  9  0  2.1037  1.8679  
2011    283    44280.0000   -0.0350    0.2952    0.0711    2.3886  9  0  2.1058  1.8696  
2011    283    44310.0000   -0.0458    0.2849    0.0857    2.3881  9  0  2.1078  1.8712  
2011    283    44340.0000   -0.0465    0.2784    0.0926    2.3883  9  0  2.1098  1.8728  
2011    283    44370.0000   -0.0459    0.2688    0.0926    2.3885  9  0  2.1118  1.8744  
2011    283    44400.0000   -0.0506    0.2700    0.1031    2.3884  9  0  2.1137  1.8759  
2011    283    44430.0000   -0.0596    0.2605    0.1027    2.3890  9  0  2.1155  1.8774  
2011    283    44460.0000   -0.0587    0.2518    0.1032    2.3892  9  0  2.1173  1.8788  
2011    283    44490.0000   -0.0698    0.2551    0.1107    2.3884  9  0  2.1190  1.8802  
2011    283    44520.0000   -0.0675    0.2631    0.1146    2.3879  9  0  2.1207  1.8816  
2011    283    44550.0000   -0.0745    0.2600    0.1365    2.3875  9  0  2.1224  1.8829  
2011    283    44580.0000   -0.0782    0.2580    0.1410    2.3874  9  0  2.1240  1.8842  
2011    283    44610.0000   -0.0791    0.2612    0.1274    2.3873  8  0  2.6273  2.2835  
2011    283    44640.0000   -0.0801    0.2645    0.1284    2.3869  8  0  2.6325  2.2877  
2011    283    44670.0000   -0.0781    0.2776    0.1153    2.3869  8  0  2.6376  2.2918  
2011    283    44700.0000   -0.0739    0.2684    0.1075    2.3873  9  0  2.2669  1.9900  
2011    283    44730.0000   -0.0707    0.2485    0.0874    2.3880  9  0  2.2767  1.9981  
2011    283    44760.0000   -0.0631    0.2436    0.0807    2.3883  9  0  2.2865  2.0063  
2011    283    44790.0000   -0.0546    0.2516    0.0710    2.3883  9  0  2.2963  2.0144  
2011    283    44820.0000   -0.0534    0.2601    0.0568    2.3882  9  0  2.3062  2.0225  
2011    283    44850.0000   -0.0537    0.2614    0.0571    2.3881  9  0  2.3160  2.0307  
2011    283    44880.0000   -0.0558    0.2648    0.0604    2.3879  9  0  2.3258  2.0388  
2011    283    44910.0000   -0.0519    0.2794    0.0528    2.3869  9  0  2.3357  2.0470  
2011    283    44940.0000   -0.0481    0.2531    0.0481    2.3881  9  0  2.3455  2.0551  
2011    283    44970.0000   -0.0479    0.2422    0.0374    2.3884  9  0  2.3553  2.0632  
2011    283    45000.0000   -0.0513    0.2288    0.0364    2.3892  9  0  2.3651  2.0713  
2011    283    45030.0000   -0.0485    0.2163    0.0391    2.3902  9  0  2.3748  2.0794  
2011    283    45060.0000   -0.0445    0.2215    0.0338    2.3905  9  0  2.3845  2.0874  
2011    283    45090.0000   -0.0462    0.2273    0.0377    2.3910  9  0  2.3942  2.0954  
2011    283    45120.0000   -0.0466    0.2293    0.0398    2.3903  9  0  2.4038  2.1033  
2011    283    45150.0000   -0.0490    0.2221    0.0386    2.3907  9  0  2.4134  2.1112  
2011    283    45180.0000   -0.0468    0.2120    0.0264    2.3904  9  0  2.4228  2.1190  
2011    283    45210.0000   -0.0388    0.2063    0.0113    2.3912  9  0  2.4322  2.1267  
2011    283    45240.0000   -0.0379    0.2032    0.0046    2.3914  9  0  2.4415  2.1344  
2011    283    45270.0000   -0.0317    0.1916    0.0057    2.3914  9  0  2.4508  2.1420  
2011    283    45300.0000   -0.0375    0.1925    0.0123    2.3915  9  0  2.4599  2.1496  
2011    283    45330.0000   -0.0352    0.1868    0.0065    2.3924  9  0  2.4689  2.1570  
2011    283    45360.0000   -0.0329    0.1809    0.0011    2.3930  9  0  2.4778  2.1643  
2011    283    45390.0000   -0.0320    0.1698    0.0034    2.3934  9  0  2.4866  2.1716  
2011    283    45420.0000   -0.0269    0.1631    0.0036    2.3938  9  0  2.4953  2.1787  
2011    283    45450.0000   -0.0222    0.1686    0.0035    2.3943  9  0  2.5038  2.1857  
2011    283    45480.0000   -0.0268    0.1760   -0.0009    2.3943  9  0  2.5122  2.1926  
2011    283    45510.0000   -0.0342    0.1724    0.0018    2.3942  9  0  2.5204  2.1993  
2011    283    45540.0000   -0.0330    0.1693    0.0123    2.3941  9  0  2.5284  2.2059  
2011    283    45570.0000   -0.0249    0.1711    0.0159    2.3941  9  0  2.5363  2.2124  
2011    283    45600.0000   -0.0221    0.1757   -0.0027    2.3948  9  0  2.5440  2.2187  
2011    283    45630.0000   -0.0211    0.1691   -0.0035    2.3961  9  0  2.5515  2.2248  
2011    283    45660.0000   -0.0254    0.1676   -0.0103    2.3967  9  0  2.5589  2.2308  
2011    283    45690.0000   -0.0276    0.1613   -0.0248    2.3980  9  0  2.5660  2.2366  
2011    283    45720.0000   -0.0311    0.1585   -0.0091    2.3979  9  0  2.5729  2.2423  
2011    283    45750.0000   -0.0244    0.1575   -0.0049    2.3981  9  0  2.5796  2.2477  
2011    283    45780.0000   -0.0299    0.1542   -0.0084    2.3987  9  0  2.5861  2.2530  
2011    283    45810.0000   -0.0236    0.1504   -0.0156    2.4008  9  0  2.5923  2.2581  
2011    283    45840.0000   -0.0245    0.1438   -0.0202    2.4016  9  0  2.5983  2.2629  
2011    283    45870.0000   -0.0263    0.1384   -0.0147    2.4024  9  0  2.6041  2.2676  
2011    283    45900.0000   -0.0293    0.1370   -0.0028    2.4028  9  0  2.6096  2.2721  
2011    283    45930.0000   -0.0298    0.1343   -0.0021    2.4045  9  0  2.6149  2.2763  
2011    283    45960.0000   -0.0279    0.1284   -0.0071    2.4062  9  0  2.6199  2.2803  
2011    283    45990.0000   -0.0305    0.1245   -0.0111    2.4073  9  0  2.6246  2.2841  
2011    283    46020.0000   -0.0332    0.1311   -0.0144    2.4085  9  0  2.6291  2.2877  
2011    283    46050.0000   -0.0396    0.1330   -0.0008    2.4095  9  0  2.6333  2.2911  
2011    283    46080.0000   -0.0385    0.1352   -0.0028    2.4099  9  0  2.6372  2.2942  
2011    283    46110.0000   -0.0405    0.1215   -0.0137    2.4109  9  0  2.6409  2.2971  
2011    283    46140.0000   -0.0497    0.1223    0.0019    2.4106  9  0  2.6442  2.2997  
2011    283    46170.0000   -0.0517    0.1149    0.0006    2.4101  9  0  2.6473  2.3021  
2011    283    46200.0000   -0.0420    0.1174   -0.0062    2.4100  9  0  2.6501  2.3043  
2011    283    46230.0000   -0.0391    0.1145   -0.0118    2.4107  9  0  2.6526  2.3062  
2011    283    46260.0000   -0.0420    0.1087   -0.0021    2.4108  9  0  2.6548  2.3079  
2011    283    46290.0000   -0.0411    0.1020   -0.0110    2.4101  9  0  2.6567  2.3093  
2011    283    46320.0000   -0.0390    0.0998   -0.0114    2.4094  9  0  2.6584  2.3105  
2011    283    46350.0000   -0.0419    0.1098   -0.0003    2.4099  9  0  2.6597  2.3114  
2011    283    46380.0000   -0.0411    0.1035    0.0037    2.4110  9  0  2.6607  2.3121  
2011    283    46410.0000   -0.0308    0.0994   -0.0150    2.4111  9  0  2.6615  2.3125  
2011    283    46440.0000   -0.0404    0.0904   -0.0058    2.4111  9  0  2.6620  2.3127  
2011    283    46470.0000   -0.0299    0.0951   -0.0295    2.4112  9  0  2.6621  2.3127  
2011    283    46500.0000   -0.0321    0.0972   -0.0232    2.4117  9  0  2.6620  2.3124  
2011    283    46530.0000   -0.0389    0.0945   -0.0209    2.4120  9  0  2.6616  2.3119  
2011    283    46560.0000   -0.0311    0.1021   -0.0216    2.4128  9  0  2.6610  2.3112  
2011    283    46590.0000   -0.0323    0.0977   -0.0100    2.4134  9  0  2.6600  2.3102  
2011    283    46620.0000   -0.0320    0.1038   -0.0103    2.4139  9  0  2.6588  2.3090  
2011    283    46650.0000   -0.0403    0.1025    0.0009    2.4135  9  0  2.6573  2.3075  
2011    283    46680.0000   -0.0408    0.0996    0.0110    2.4133  9  0  2.6556  2.3059  
2011    283    46710.0000   -0.0431    0.0990    0.0117    2.4131  9  0  2.6535  2.3040  
2011    283    46740.0000   -0.0411    0.0967    0.0119    2.4135  9  0  2.6513  2.3020  
2011    283    46770.0000   -0.0389    0.0973    0.0038    2.4138  9  0  2.6488  2.2997  
2011    283    46800.0000   -0.0418    0.0961    0.0084    2.4147  9  0  2.6460  2.2972  
2011    283    46830.0000   -0.0431    0.0976    0.0062    2.4146  9  0  2.6430  2.2945  
2011    283    46860.0000   -0.0472    0.0935    0.0097    2.4149  9  0  2.6398  2.2916  
2011    283    46890.0000   -0.0407    0.0958    0.0015    2.4145  9  0  2.6364  2.2886  
2011    283    46920.0000   -0.0433    0.0937   -0.0014    2.4144  9  0  2.6327  2.2853  
2011    283    46950.0000   -0.0372    0.0966    0.0056    2.4136  9  0  2.6288  2.2819  
2011    283    46980.0000   -0.0353    0.1011   -0.0034    2.4135  9  0  2.6247  2.2784  
2011    283    47010.0000   -0.0380    0.0974    0.0054    2.4139  9  0  2.6205  2.2746  
2011    283    47040.0000   -0.0421    0.1010    0.0024    2.4137  9  0  2.6160  2.2707  
2011    283    47070.0000   -0.0402    0.1030   -0.0033    2.4138  9  0  2.6114  2.2667  
2011    283    47100.0000   -0.0462    0.1045    0.0046    2.4143  9  0  2.6066  2.2625  
2011    283    47130.0000   -0.0436    0.1057    0.0116    2.4143  9  0  2.6016  2.2582  
2011    283    47160.0000   -0.0354    0.1095   -0.0007    2.4142  10  0  2.0263  1.7972  
2011    283    47190.0000   -0.0424    0.1034    0.0106    2.4139  10  0  2.0237  1.7950  
2011    283    47220.0000   -0.0380    0.1057    0.0060    2.4130  10  0  2.0211  1.7926  
2011    283    47250.0000   -0.0346    0.1020   -0.0045    2.4127  10  0  2.0183  1.7902  
2011    283    47280.0000   -0.0400    0.0977   -0.0022    2.4124  10  0  2.0155  1.7878  
2011    283    47310.0000   -0.0458    0.0961    0.0131    2.4121  10  0  2.0126  1.7853  
2011    283    47340.0000   -0.0382    0.0953   -0.0020    2.4122  10  0  2.0096  1.7827  
2011    283    47370.0000   -0.0333    0.0976   -0.0018    2.4122  10  0  2.0066  1.7800  
2011    283    47400.0000   -0.0365    0.0974    0.0059    2.4121  9  0  2.1142  1.8798  
2011    283    47430.0000   -0.0356    0.0978    0.0131    2.4121  9  0  2.1128  1.8783  
2011    283    47460.0000   -0.0318    0.0980    0.0006    2.4123  9  0  2.1114  1.8768  
2011    283    47490.0000   -0.0362    0.0962    0.0097    2.4123  9  0  2.1100  1.8753  
2011    283    47520.0000   -0.0360    0.0939    0.0170    2.4124  9  0  2.1085  1.8738  
2011    283    47550.0000   -0.0355    0.0936    0.0105    2.4122  9  0  2.1070  1.8722  
2011    283    47580.0000   -0.0281    0.0968    0.0014    2.4120  9  0  2.1054  1.8705  
2011    283    47610.0000   -0.0248    0.0934   -0.0123    2.4117  9  0  2.1037  1.8688  
2011    283    47640.0000   -0.0298    0.0880    0.0131    2.4118  9  0  2.1020  1.8671  
2011    283    47670.0000   -0.0300    0.0901    0.0156    2.4119  9  0  2.1003  1.8653  
2011    283    47700.0000   -0.0256    0.0873   -0.0044    2.4116  9  1  2.0985  1.8635  
2011    283    47730.0000   -0.0228    0.0912   -0.0114    2.4113  9  1  2.0967  1.8617  
2011    283    47760.0000   -0.0228    0.0882   -0.0040    2.4109  9  1  2.0948  1.8598  
2011    283    47790.0000   -0.0270    0.0877    0.0002    2.4104  9  1  2.0929  1.8579  
2011    283    47820.0000   -0.0321    0.0846   -0.0048    2.4098  9  1  2.0909  1.8560  
2011    283    47850.0000   -0.0357    0.0775    0.0147    2.4097  9  1  2.0889  1.8540  
2011    283    47880.0000   -0.0365    0.0758    0.0004    2.4094  9  1  2.0869  1.8520  
2011    283    47910.0000   -0.0362    0.0755    0.0091    2.4093  9  1  2.0848  1.8500  
2011    283    47940.0000   -0.0297    0.0781   -0.0137    2.4089  9  1  2.0827  1.8480  
2011    283    47970.0000   -0.0291    0.0814   -0.0014    2.4085  9  1  2.0806  1.8459  
2011    283    48000.0000   -0.0305    0.0832    0.0037    2.4084  9  1  2.0784  1.8438  
2011    283    48030.0000   -0.0339    0.0818    0.0165    2.4081  9  1  2.0762  1.8416  
2011    283    48060.0000   -0.0357    0.0868    0.0065    2.4079  9  1  2.0739  1.8394  
2011    283    48090.0000   -0.0315    0.0850    0.0047    2.4078  9  1  2.0716  1.8373  
2011    283    48120.0000   -0.0247    0.0899    0.0157    2.4076  9  1  2.0693  1.8350  
2011    283    48150.0000   -0.0256    0.0863   -0.0048    2.4076  9  1  2.0670  1.8328  
2011    283    48180.0000   -0.0355    0.0836    0.0047    2.4080  9  1  2.0646  1.8306  
2011    283    48210.0000   -0.0336    0.0843   -0.0009    2.4080  9  1  2.0622  1.8283  
2011    283    48240.0000   -0.0286    0.0827   -0.0006    2.4080  9  1  2.0598  1.8260  
2011    283    48270.0000   -0.0270    0.0833   -0.0031    2.4081  9  1  2.0573  1.8237  
2011    283    48300.0000   -0.0270    0.0825    0.0012    2.4083  9  1  2.0548  1.8213  
2011    283    48330.0000   -0.0274    0.0805   -0.0050    2.4082  9  1  2.0523  1.8190  
2011    283    48360.0000   -0.0239    0.0825    0.0086    2.4081  9  1  2.0498  1.8166  
2011    283    48390.0000   -0.0177    0.0839   -0.0042    2.4075  9  1  2.0473  1.8143  
2011    283    48420.0000   -0.0180    0.0852   -0.0015    2.4069  9  1  2.0447  1.8119  
2011    283    48450.0000   -0.0222    0.0845    0.0059    2.4062  9  1  2.0422  1.8095  
2011    283    48480.0000   -0.0248    0.0777   -0.0129    2.4059  9  1  2.0396  1.8071  
2011    283    48510.0000   -0.0214    0.0745   -0.0099    2.4060  8  1  3.0154  2.6088  
2011    283    48540.0000   -0.0253    0.0739    0.0005    2.4061  8  1  2.9979  2.5934  
2011    283    48570.0000   -0.0229    0.0698   -0.0108    2.4063  8  1  2.9806  2.5782  
2011    283    48600.0000   -0.0218    0.0685    0.0019    2.4066  8  1  2.9634  2.5633  
2011    283    48630.0000   -0.0235    0.0695    0.0024    2.4067  8  1  2.9465  2.5485  
2011    283    48660.0000   -0.0218    0.0701   -0.0037    2.4066  8  1  2.9298  2.5338  
2011    283    48690.0000   -0.0230    0.0712    0.0096    2.4069  8  1  2.9133  2.5194  
2011    283    48720.0000   -0.0267    0.0707    0.0092    2.4071  8  1  2.8971  2.5052  
2011    283    48750.0000   -0.0243    0.0696    0.0015    2.4073  8  1  2.8810  2.4912  
2011    283    48780.0000   -0.0271    0.0686    0.0074    2.4075  8  1  2.8651  2.4773  
2011    283    48810.0000   -0.0184    0.0658   -0.0008    2.4074  8  1  2.8494  2.4636  
2011    283    48840.0000   -0.0168    0.0623    0.0060    2.4080  8  1  2.8340  2.4501  
2011    283    48870.0000   -0.0211    0.0640    0.0048    2.4083  8  1  2.8187  2.4368  
2011    283    48900.0000   -0.0253    0.0644   -0.0022    2.4087  8  1  2.8037  2.4237  
2011    283    48930.0000   -0.0276    0.0650   -0.0068    2.4090  8  1  2.7888  2.4108  
2011    283    48960.0000   -0.0205    0.0634   -0.0114    2.4094  8  1  2.7741  2.3980  
2011    283    48990.0000   -0.0245    0.0685   -0.0127    2.4093  8  1  2.7596  2.3854  
2011    283    49020.0000   -0.0220    0.0655   -0.0203    2.4091  8  1  2.7454  2.3730  
2011    283    49050.0000   -0.0221    0.0668   -0.0245    2.4088  8  1  2.7313  2.3608  
2011    283    49080.0000   -0.0204    0.0630   -0.0320    2.4085  8  1  2.7174  2.3487  
2011    283    49110.0000   -0.0148    0.0690   -0.0164    2.4086  8  1  2.7037  2.3368  
2011    283    49140.0000   -0.0141    0.0738   -0.0204    2.4084  8  1  2.6902  2.3251  
2011    283    49170.0000   -0.0174    0.0706   -0.0290    2.4085  8  1  2.6768  2.3136  
2011    283    49200.0000   -0.0170    0.0662   -0.0209    2.4089  8  1  2.6637  2.3022  
2011    283    49230.0000   -0.0168    0.0680   -0.0289    2.4089  8  1  2.6507  2.2909  
2011    283    49260.0000   -0.0147    0.0684   -0.0320    2.4088  8  1  2.6379  2.2799  
2011    283    49290.0000   -0.0183    0.0654   -0.0279    2.4085  8  1  2.6253  2.2690  
2011    283    49320.0000   -0.0191    0.0636   -0.0294    2.4080  8  1  2.6129  2.2582  
2011    283    49350.0000   -0.0227    0.0624   -0.0297    2.4078  8  1  2.6006  2.2477  
2011    283    49380.0000   -0.0213    0.0619   -0.0269    2.4076  8  1  2.5885  2.2372  
2011    283    49410.0000   -0.0231    0.0602   -0.0227    2.4073  8  1  2.5766  2.2270  
2011    283    49440.0000   -0.0232    0.0625   -0.0110    2.4074  8  1  2.5649  2.2168  
2011    283    49470.0000   -0.0263    0.0599   -0.0222    2.4072  8  1  2.5533  2.2069  
2011    283    49500.0000   -0.0268    0.0648   -0.0137    2.4065  8  1  2.5419  2.1971  
2011    283    49530.0000   -0.0271    0.0675   -0.0115    2.4052  8  1  2.5307  2.1874  
2011    283    49560.0000   -0.0198    0.0632   -0.0195    2.4046  8  1  2.5196  2.1779  
2011    283    49590.0000   -0.0217    0.0629   -0.0139    2.4038  8  1  2.5087  2.1685  
2011    283    49620.0000   -0.0222    0.0673   -0.0015    2.4026  8  1  2.4980  2.1593  
2011    283    49650.0000   -0.0163    0.0622   -0.0154    2.4019  8  1  2.4874  2.1502  
2011    283    49680.0000   -0.0167    0.0626   -0.0050    2.4015  8  1  2.4769  2.1412  
2011    283    49710.0000   -0.0203    0.0639    0.0009    2.4010  8  1  2.4666  2.1324  
2011    283    49740.0000   -0.0227    0.0640    0.0072    2.4002  8  1  2.4565  2.1238  
2011    283    49770.0000   -0.0206    0.0622   -0.0062    2.4001  8  1  2.4465  2.1152  
2011    283    49800.0000   -0.0209    0.0603   -0.0028    2.4005  8  1  2.4367  2.1068  
2011    283    49830.0000   -0.0186    0.0650   -0.0004    2.4010  8  1  2.4271  2.0986  
2011    283    49860.0000   -0.0224    0.0612   -0.0142    2.4008  8  1  2.4175  2.0904  
2011    283    49890.0000   -0.0205    0.0648   -0.0061    2.4011  8  1  2.4081  2.0824  
2011    283    49920.0000   -0.0186    0.0623   -0.0102    2.4014  8  1  2.3989  2.0745  
2011    283    49950.0000   -0.0167    0.0662    0.0078    2.4021  8  1  2.3898  2.0668  
2011    283    49980.0000   -0.0192    0.0667   -0.0022    2.4022  8  1  2.3809  2.0592  
2011    283    50010.0000   -0.0180    0.0653   -0.0101    2.4023  8  1  2.3720  2.0517  
2011    283    50040.0000   -0.0169    0.0640   -0.0210    2.4030  8  1  2.3634  2.0443  
2011    283    50070.0000   -0.0215    0.0679   -0.0128    2.4031  7  1  3.3472  2.7671  
2011    283    50100.0000   -0.0214    0.0660   -0.0083    2.4032  7  1  3.3585  2.7747  
2011    283    50130.0000   -0.0243    0.0608   -0.0263    2.4032  7  1  3.3700  2.7825  
2011    283    50160.0000   -0.0233    0.0632   -0.0296    2.4032  7  1  3.3819  2.7906  
2011    283    50190.0000   -0.0244    0.0637   -0.0366    2.4032  7  1  3.3940  2.7989  
2011    283    50220.0000   -0.0231    0.0658   -0.0325    2.4032  7  1  3.4064  2.8074  
2011    283    50250.0000   -0.0233    0.0678   -0.0133    2.4033  7  1  3.4191  2.8161  
2011    283    50280.0000   -0.0278    0.0623   -0.0303    2.4032  7  1  3.4321  2.8251  
2011    283    50310.0000   -0.0246    0.0633   -0.0339    2.4032  7  1  3.4452  2.8342  
2011    283    50340.0000   -0.0275    0.0642   -0.0404    2.4031  7  1  3.4587  2.8436  
2011    283    50370.0000   -0.0277    0.0605   -0.0290    2.4030  7  1  3.4724  2.8532  
2011    283    50400.0000   -0.0265    0.0633   -0.0288    2.4030  7  1  3.4863  2.8630  
2011    283    50430.0000   -0.0278    0.0568   -0.0381    2.4029  7  1  3.5004  2.8730  
2011    283    50460.0000   -0.0269    0.0590   -0.0311    2.4028  7  1  3.5147  2.8831  
2011    283    50490.0000   -0.0305    0.0526   -0.0484    2.4028  7  1  3.5292  2.8934  
2011    283    50520.0000   -0.0309    0.0568   -0.0390    2.4027  7  1  3.5439  2.9039  
2011    283    50550.0000   -0.0308    0.0578   -0.0306    2.4026  7  1  3.5588  2.9145  
2011    283    50580.0000   -0.0288    0.0599   -0.0292    2.4026  7  1  3.5739  2.9253  
2011    283    50610.0000   -0.0267    0.0611   -0.0342    2.4025  7  1  3.5890  2.9362  
2011    283    50640.0000   -0.0302    0.0598   -0.0337    2.4025  7  1  3.6044  2.9473  
2011    283    50670.0000   -0.0301    0.0557   -0.0405    2.4024  7  1  3.6198  2.9584  
2011    283    50700.0000   -0.0305    0.0627   -0.0235    2.4024  7  1  3.6354  2.9697  
2011    283    50730.0000   -0.0253    0.0619   -0.0150    2.4023  7  1  3.6510  2.9810  
2011    283    50760.0000   -0.0246    0.0642   -0.0154    2.4023  7  1  3.6667  2.9924  
2011    283    50790.0000   -0.0264    0.0600   -0.0423    2.4023  7  1  3.6825  3.0039  
2011    283    50820.0000   -0.0229    0.0642   -0.0301    2.4023  7  1  3.6983  3.0154  
2011    283    50850.0000   -0.0251    0.0664   -0.0159    2.4023  7  1  3.7141  3.0270  
2011    283    50880.0000   -0.0256    0.0634   -0.0249    2.4023  7  1  3.7299  3.0385  
2011    283    50910.0000   -0.0266    0.0610   -0.0376    2.4023  7  1  3.7457  3.0501  
2011    283    50940.0000   -0.0300    0.0574   -0.0395    2.4023  7  1  3.7614  3.0617  
2011    283    50970.0000   -0.0338    0.0549   -0.0461    2.4023  7  1  3.7771  3.0732  
2011    283    51000.0000   -0.0308    0.0570   -0.0476    2.4023  7  1  3.7926  3.0847  
2011    283    51030.0000   -0.0305    0.0548   -0.0469    2.4024  7  1  3.8081  3.0961  
2011    283    51060.0000   -0.0257    0.0577   -0.0377    2.4024  7  1  3.8234  3.1074  
2011    283    51090.0000   -0.0285    0.0542   -0.0414    2.4024  7  1  3.8386  3.1186  
2011    283    51120.0000   -0.0250    0.0557   -0.0369    2.4025  7  1  3.8536  3.1297  
2011    283    51150.0000   -0.0238    0.0585   -0.0325    2.4025  7  1  3.8683  3.1406  
2011    283    51180.0000   -0.0269    0.0540   -0.0255    2.4025  7  1  3.8828  3.1514  
2011    283    51210.0000   -0.0265    0.0503   -0.0251    2.4026  7  1  3.8971  3.1620  
2011    283    51240.0000   -0.0281    0.0521   -0.0241    2.4027  7  1  3.9110  3.1724  
2011    283    51270.0000   -0.0274    0.0534   -0.0374    2.4028  7  1  3.9246  3.1825  
2011    283    51300.0000   -0.0270    0.0540   -0.0324    2.4029  7  1  3.9379  3.1924  
2011    283    51330.0000   -0.0301    0.0544   -0.0301    2.4029  7  1  3.9508  3.2021  
2011    283    51360.0000   -0.0289    0.0545   -0.0266    2.4029  7  1  3.9633  3.2114  
2011    283    51390.0000   -0.0245    0.0560   -0.0345    2.4030  7  1  3.9753  3.2204  
2011    283    51420.0000   -0.0248    0.0551   -0.0266    2.4031  7  1  3.9869  3.2291  
2011    283    51450.0000   -0.0254    0.0518   -0.0240    2.4032  7  1  3.9980  3.2375  
2011    283    51480.0000   -0.0309    0.0505   -0.0398    2.4034  7  1  4.0086  3.2454  
2011    283    51510.0000   -0.0295    0.0549   -0.0389    2.4034  7  1  4.0186  3.2530  
2011    283    51540.0000   -0.0316    0.0524   -0.0391    2.4036  7  1  4.0281  3.2601  
2011    283    51570.0000   -0.0357    0.0517   -0.0457    2.4039  7  1  4.0370  3.2668  
2011    283    51600.0000   -0.0324    0.0558   -0.0360    2.4040  7  1  4.0452  3.2731  
2011    283    51630.0000   -0.0306    0.0488   -0.0269    2.4043  7  1  4.0529  3.2788  
2011    283    51660.0000   -0.0288    0.0488   -0.0483    2.4044  7  1  4.0598  3.2841  
2011    283    51690.0000   -0.0302    0.0492   -0.0385    2.4046  7  1  4.0661  3.2889  
2011    283    51720.0000   -0.0325    0.0502   -0.0489    2.4047  7  1  4.0717  3.2932  
2011    283    51750.0000   -0.0319    0.0498   -0.0613    2.4047  7  1  4.0766  3.2969  
2011    283    51780.0000   -0.0300    0.0486   -0.0495    2.4047  7  1  4.0808  3.3001  
2011    283    51810.0000   -0.0316    0.0470   -0.0420    2.4049  7  1  4.0842  3.3028  
2011    283    51840.0000   -0.0345    0.0458   -0.0386    2.4052  7  1  4.0868  3.3048  
2011    283    51870.0000   -0.0290    0.0492   -0.0361    2.4052  7  1  4.0887  3.3063  
2011    283    51900.0000   -0.0303    0.0478   -0.0264    2.4056  7  1  4.0898  3.3073  
2011    283    51930.0000   -0.0277    0.0426   -0.0247    2.4061  7  1  4.0902  3.3076  
2011    283    51960.0000   -0.0252    0.0396   -0.0387    2.4065  7  1  4.0897  3.3074  
2011    283    51990.0000   -0.0245    0.0421   -0.0370    2.4069  7  1  4.0885  3.3065  
2011    283    52020.0000   -0.0220    0.0430   -0.0340    2.4071  7  1  4.0865  3.3051  
2011    283    52050.0000   -0.0193    0.0395   -0.0323    2.4075  7  1  4.0837  3.3031  
2011    283    52080.0000   -0.0238    0.0454   -0.0347    2.4077  7  1  4.0801  3.3005  
2011    283    52110.0000   -0.0248    0.0438   -0.0389    2.4079  7  1  4.0758  3.2974  
2011    283    52140.0000   -0.0183    0.0417   -0.0335    2.4085  7  1  4.0707  3.2937  
2011    283    52170.0000   -0.0172    0.0394   -0.0265    2.4092  7  1  4.0648  3.2894  
2011    283    52200.0000   -0.0223    0.0397   -0.0357    2.4097  7  1  4.0582  3.2845  
2011    283    52230.0000   -0.0177    0.0383   -0.0388    2.4104  7  1  4.0509  3.2791  
2011    283    52260.0000   -0.0169    0.0349   -0.0354    2.4108  7  1  4.0428  3.2732  
2011    283    52290.0000   -0.0159    0.0357   -0.0347    2.4114  7  1  4.0341  3.2668  
2011    283    52320.0000   -0.0179    0.0375   -0.0404    2.4116  7  1  4.0247  3.2598  
2011    283    52350.0000   -0.0165    0.0324   -0.0397    2.4121  7  1  4.0146  3.2524  
2011    283    52380.0000   -0.0167    0.0354   -0.0414    2.4122  7  1  4.0040  3.2445  
2011    283    52410.0000   -0.0194    0.0346   -0.0550    2.4119  7  1  3.9927  3.2361  
2011    283    52440.0000   -0.0224    0.0347   -0.0382    2.4118  7  1  3.9808  3.2273  
2011    283    52470.0000   -0.0236    0.0355   -0.0341    2.4115  7  1  3.9683  3.2181  
2011    283    52500.0000   -0.0164    0.0379   -0.0162    2.4119  7  1  3.9554  3.2085  
2011    283    52530.0000   -0.0173    0.0386   -0.0271    2.4123  7  1  3.9419  3.1986  
2011    283    52560.0000   -0.0189    0.0353   -0.0328    2.4124  7  1  3.9279  3.1882  
2011    283    52590.0000   -0.0203    0.0351   -0.0328    2.4117  7  1  3.9135  3.1776  
2011    283    52620.0000   -0.0209    0.0340   -0.0296    2.4119  7  1  3.8987  3.1666  
2011    283    52650.0000   -0.0190    0.0315   -0.0312    2.4121  7  1  3.8834  3.1553  
2011    283    52680.0000   -0.0136    0.0343   -0.0303    2.4121  7  1  3.8678  3.1438  
2011    283    52710.0000   -0.0112    0.0328   -0.0082    2.4130  7  1  3.8518  3.1320  
2011    283    52740.0000   -0.0131    0.0367   -0.0271    2.4136  7  1  3.8356  3.1199  
2011    283    52770.0000   -0.0158    0.0384   -0.0268    2.4133  7  1  3.8190  3.1077  
2011    283    52800.0000   -0.0130    0.0403   -0.0354    2.4132  7  1  3.8022  3.0953  
2011    283    52830.0000   -0.0162    0.0382   -0.0495    2.4130  7  1  3.7852  3.0827  
2011    283    52860.0000   -0.0141    0.0377   -0.0363    2.4129  7  1  3.7679  3.0700  
2011    283    52890.0000   -0.0141    0.0340   -0.0277    2.4126  7  1  3.7505  3.0571  
2011    283    52920.0000   -0.0110    0.0323   -0.0338    2.4122  7  1  3.7329  3.0442  
2011    283    52950.0000   -0.0099    0.0288   -0.0287    2.4118  7  1  3.7151  3.0311  
2011    283    52980.0000   -0.0097    0.0279   -0.0220    2.4116  7  1  3.6973  3.0180  
2011    283    53010.0000   -0.0103    0.0280   -0.0419    2.4112  7  1  3.6794  3.0048  
2011    283    53040.0000   -0.0104    0.0265   -0.0169    2.4110  7  1  3.6614  2.9916  
2011    283    53070.0000   -0.0060    0.0311   -0.0200    2.4108  7  1  3.6434  2.9783  
2011    283    53100.0000   -0.0063    0.0339   -0.0203    2.4106  7  1  3.6254  2.9651  
2011    283    53130.0000   -0.0060    0.0346   -0.0280    2.4097  8  1  2.3039  2.0231  
2011    283    53160.0000   -0.0061    0.0320   -0.0160    2.4096  8  1  2.3042  2.0235  
2011    283    53190.0000   -0.0125    0.0330   -0.0163    2.4095  8  1  2.3044  2.0237  
2011    283    53220.0000   -0.0089    0.0303   -0.0169    2.4091  8  1  2.3045  2.0238  
2011    283    53250.0000   -0.0059    0.0345   -0.0059    2.4088  8  1  2.3043  2.0237  
2011    283    53280.0000   -0.0058    0.0300   -0.0194    2.4088  8  1  2.3041  2.0236  
2011    283    53310.0000   -0.0076    0.0286   -0.0178    2.4084  8  1  2.3036  2.0232  
2011    283    53340.0000   -0.0068    0.0300   -0.0166    2.4082  8  1  2.3030  2.0228  
2011    283    53370.0000   -0.0111    0.0270   -0.0138    2.4084  8  1  2.3023  2.0222  
2011    283    53400.0000   -0.0107    0.0278   -0.0183    2.4085  8  1  2.3014  2.0215  
2011    283    53430.0000   -0.0116    0.0289   -0.0076    2.4082  8  1  2.3003  2.0206  
2011    283    53460.0000   -0.0140    0.0263   -0.0203    2.4084  8  1  2.2991  2.0196  
2011    283    53490.0000   -0.0130    0.0243   -0.0295    2.4083  8  1  2.2977  2.0184  
2011    283    53520.0000   -0.0085    0.0272   -0.0236    2.4085  8  1  2.2962  2.0172  
2011    283    53550.0000   -0.0049    0.0233   -0.0252    2.4089  8  1  2.2946  2.0158  
2011    283    53580.0000   -0.0071    0.0258   -0.0252    2.4100  8  1  2.2927  2.0142  
2011    283    53610.0000   -0.0020    0.0250   -0.0241    2.4103  8  1  2.2908  2.0126  
2011    283    53640.0000   -0.0041    0.0244   -0.0248    2.4100  8  1  2.2886  2.0108  
2011    283    53670.0000   -0.0001    0.0246   -0.0188    2.4094  8  1  2.2864  2.0088  
2011    283    53700.0000   -0.0044    0.0250   -0.0175    2.4094  8  1  2.2840  2.0068  
2011    283    53730.0000   -0.0027    0.0232   -0.0041    2.4090  8  1  2.2815  2.0046  
2011    283    53760.0000   -0.0035    0.0206   -0.0164    2.4098  8  1  2.2788  2.0023  
2011    283    53790.0000   -0.0035    0.0269   -0.0079    2.4094  8  1  2.2760  1.9999  
2011    283    53820.0000   -0.0024    0.0195   -0.0087    2.4102  8  1  2.2730  1.9974  
2011    283    53850.0000    0.0025    0.0254   -0.0105    2.4096  8  1  2.2700  1.9948  
2011    283    53880.0000    0.0008    0.0225   -0.0101    2.4096  8  1  2.2668  1.9920  
2011    283    53910.0000    0.0015    0.0240   -0.0099    2.4088  8  1  2.2635  1.9892  
2011    283    53940.0000    0.0000    0.0255   -0.0170    2.4083  8  1  2.2601  1.9862  
2011    283    53970.0000    0.0002    0.0269   -0.0061    2.4077  8  1  2.2566  1.9832  
2011    283    54000.0000    0.0066    0.0200   -0.0048    2.4082  8  1  2.2529  1.9801  
2011    283    54030.0000    0.0019    0.0261   -0.0005    2.4077  8  1  2.2492  1.9768  
2011    283    54060.0000    0.0036    0.0237    0.0027    2.4085  8  1  2.2454  1.9735  
2011    283    54090.0000    0.0052    0.0220    0.0005    2.4091  8  1  2.2415  1.9701  
2011    283    54120.0000    0.0071    0.0233   -0.0098    2.4086  8  1  2.2374  1.9666  
2011    283    54150.0000    0.0084    0.0276    0.0038    2.4094  8  1  2.2333  1.9631  
2011    283    54180.0000   -0.0001    0.0244   -0.0129    2.4085  8  1  2.2291  1.9594  
2011    283    54210.0000   -0.0004    0.0247   -0.0076    2.4081  8  1  2.2249  1.9557  
2011    283    54240.0000    0.0019    0.0250   -0.0159    2.4078  8  1  2.2205  1.9519  
2011    283    54270.0000    0.0041    0.0216   -0.0181    2.4073  8  1  2.2161  1.9481  
2011    283    54300.0000   -0.0012    0.0194   -0.0147    2.4079  8  1  2.2116  1.9442  
2011    283    54330.0000   -0.0050    0.0184   -0.0228    2.4074  8  1  2.2071  1.9403  
2011    283    54360.0000   -0.0019    0.0212   -0.0156    2.4069  8  1  2.2025  1.9362  
2011    283    54390.0000   -0.0018    0.0237   -0.0190    2.4059  8  1  2.1978  1.9322  
2011    283    54420.0000    0.0009    0.0221   -0.0172    2.4058  8  1  2.1931  1.9281  
2011    283    54450.0000   -0.0003    0.0164   -0.0060    2.4061  8  1  2.1883  1.9240  
2011    283    54480.0000    0.0030    0.0229   -0.0081    2.4060  8  1  2.1835  1.9198  
2011    283    54510.0000    0.0021    0.0215   -0.0134    2.4068  8  1  2.1787  1.9156  
2011    283    54540.0000    0.0023    0.0213   -0.0114    2.4074  8  1  2.1738  1.9113  
2011    283    54570.0000    0.0007    0.0204   -0.0170    2.4079  8  1  2.1689  1.9070  
2011    283    54600.0000   -0.0014    0.0223   -0.0073    2.4074  8  1  2.1639  1.9027  
2011    283    54630.0000    0.0013    0.0186   -0.0022    2.4077  8  1  2.1590  1.8984  
2011    283    54660.0000    0.0062    0.0221   -0.0173    2.4086  8  1  2.1540  1.8941  
2011    283    54690.0000    0.0084    0.0243   -0.0204    2.4088  8  1  2.1490  1.8897  
2011    283    54720.0000    0.0040    0.0225   -0.0350    2.4089  8  1  2.1439  1.8853  
2011    283    54750.0000    0.0012    0.0195   -0.0322    2.4088  8  1  2.1389  1.8809  
2011    283    54780.0000    0.0031    0.0203   -0.0209    2.4095  8  1  2.1338  1.8765  
2011    283    54810.0000    0.0046    0.0226   -0.0295    2.4091  8  1  2.1288  1.8721  
2011    283    54840.0000    0.0039    0.0252   -0.0325    2.4093  8  1  2.1237  1.8677  
2011    283    54870.0000    0.0036    0.0245   -0.0313    2.4084  8  1  2.1187  1.8633  
2011    283    54900.0000    0.0041    0.0211   -0.0185    2.4082  8  1  2.1136  1.8589  
2011    283    54930.0000   -0.0042    0.0200   -0.0261    2.4074  8  1  2.1085  1.8545  
2011    283    54960.0000    0.0019    0.0203   -0.0305    2.4068  8  1  2.1035  1.8501  
2011    283    54990.0000    0.0020    0.0184   -0.0314    2.4067  8  1  2.0984  1.8457  
2011    283    55020.0000    0.0068    0.0193   -0.0345    2.4073  9  1  1.7672  1.5568  
2011    283    55050.0000    0.0050    0.0257   -0.0379    2.4073  9  1  1.7687  1.5578  
2011    283    55080.0000    0.0016    0.0219   -0.0308    2.4072  9  1  1.7701  1.5588  
2011    283    55110.0000   -0.0030    0.0207   -0.0306    2.4070  9  1  1.7714  1.5598  
2011    283    55140.0000    0.0006    0.0209   -0.0307    2.4069  9  1  1.7728  1.5608  
2011    283    55170.0000   -0.0034    0.0204   -0.0285    2.4067  9  1  1.7742  1.5617  
2011    283    55200.0000    0.0000    0.0171   -0.0184    2.4066  8  1  2.0098  1.7437  
2011    283    55230.0000    0.0014    0.0182   -0.0322    2.4066  8  1  2.0121  1.7452  
2011    283    55260.0000    0.0008    0.0190   -0.0325    2.4064  8  1  2.0143  1.7467  
2011    283    55290.0000    0.0043    0.0216   -0.0420    2.4063  8  1  2.0165  1.7482  
2011    283    55320.0000    0.0049    0.0203   -0.0260    2.4062  8  1  2.0188  1.7497  
2011    283    55350.0000    0.0010    0.0215   -0.0163    2.4062  8  1  2.0210  1.7512  
2011    283    55380.0000    0.0043    0.0153   -0.0243    2.4062  8  1  2.0232  1.7528  
2011    283    55410.0000   -0.0014    0.0118   -0.0132    2.4062  8  1  2.0255  1.7543  
2011    283    55440.0000    0.0029    0.0114   -0.0301    2.4061  8  1  2.0277  1.7558  
2011    283    55470.0000    0.0001    0.0145   -0.0193    2.4061  8  1  2.0299  1.7573  
2011    283    55500.0000   -0.0038    0.0133   -0.0153    2.4062  8  1  2.0321  1.7589  
2011    283    55530.0000    0.0001    0.0174   -0.0354    2.4062  8  1  2.0342  1.7604  
2011    283    55560.0000    0.0053    0.0216   -0.0300    2.4063  8  1  2.0364  1.7619  
2011    283    55590.0000    0.0064    0.0174   -0.0243    2.4063  8  1  2.0386  1.7634  
2011    283    55620.0000    0.0049    0.0210   -0.0354    2.4063  8  1  2.0407  1.7649  
2011    283    55650.0000   -0.0019    0.0179   -0.0207    2.4063  8  1  2.0428  1.7664  
2011    283    55680.0000    0.0001    0.0103   -0.0308    2.4063  9  1  1.8471  1.6127  
2011    283    55710.0000    0.0026    0.0175   -0.0335    2.4062  9  1  1.8489  1.6140  
2011    283    55740.0000    0.0045    0.0121   -0.0260    2.4062  9  1  1.8508  1.6154  
2011    283    55770.0000    0.0022    0.0153   -0.0316    2.4061  9  1  1.8526  1.6169  
2011    283    55800.0000    0.0014    0.0192   -0.0243    2.4062  9  1  1.8545  1.6183  
2011    283    55830.0000    0.0002    0.0122   -0.0193    2.4061  9  1  1.8564  1.6197  
2011    283    55860.0000    0.0002    0.0113   -0.0233    2.4057  9  1  1.8583  1.6212  
2011    283    55890.0000   -0.0002    0.0085   -0.0255    2.4056  9  1  1.8602  1.6227  
2011    283    55920.0000   -0.0043    0.0089   -0.0297    2.4056  9  1  1.8621  1.6242  
2011    283    55950.0000    0.0003    0.0072   -0.0240    2.4054  9  1  1.8640  1.6257  
2011    283    55980.0000    0.0032    0.0064   -0.0246    2.4051  9  1  1.8659  1.6272  
2011    283    56010.0000    0.0037    0.0034   -0.0308    2.4051  9  1  1.8678  1.6287  
2011    283    56040.0000    0.0039    0.0078   -0.0345    2.4049  9  1  1.8697  1.6302  
2011    283    56070.0000    0.0077    0.0137   -0.0362    2.4047  9  1  1.8716  1.6317  
2011    283    56100.0000    0.0015    0.0105   -0.0322    2.4050  9  1  1.8735  1.6332  
2011    283    56130.0000    0.0035    0.0184   -0.0361    2.4049  9  1  1.8754  1.6348  
2011    283    56160.0000    0.0030    0.0119   -0.0306    2.4052  9  1  1.8773  1.6363  
2011    283    56190.0000   -0.0026    0.0093   -0.0431    2.4055  9  1  1.8792  1.6378  
2011    283    56220.0000   -0.0004    0.0108   -0.0409    2.4054  9  1  1.8811  1.6393  
2011    283    56250.0000    0.0021    0.0135   -0.0423    2.4051  9  1  1.8829  1.6409  
2011    283    56280.0000    0.0020    0.0059   -0.0347    2.4051  9  1  1.8848  1.6424  
2011    283    56310.0000    0.0058    0.0125   -0.0440    2.4048  9  1  1.8866  1.6439  
2011    283    56340.0000   -0.0047    0.0106   -0.0257    2.4049  9  1  1.8884  1.6454  
2011    283    56370.0000   -0.0044    0.0050   -0.0322    2.4049  9  1  1.8902  1.6469  
2011    283    56400.0000   -0.0019    0.0091   -0.0288    2.4051  9  1  1.8920  1.6484  
2011    283    56430.0000   -0.0007    0.0075   -0.0372    2.4051  9  1  1.8938  1.6498  
2011    283    56460.0000   -0.0016    0.0060   -0.0343    2.4054  9  1  1.8955  1.6513  
2011    283    56490.0000   -0.0031    0.0033   -0.0347    2.4055  9  1  1.8972  1.6528  
2011    283    56520.0000    0.0004    0.0079   -0.0455    2.4047  9  1  1.8989  1.6542  
2011    283    56550.0000   -0.0017    0.0090   -0.0283    2.4040  9  1  1.9006  1.6556  
2011    283    56580.0000   -0.0051    0.0031   -0.0321    2.4034  9  1  1.9022  1.6570  
2011    283    56610.0000   -0.0067    0.0059   -0.0383    2.4036  9  1  1.9038  1.6584  
2011    283    56640.0000    0.0049    0.0044   -0.0387    2.4038  9  1  1.9054  1.6597  
2011    283    56670.0000    0.0029    0.0030   -0.0361    2.4039  9  1  1.9069  1.6610  
2011    283    56700.0000    0.0029    0.0015   -0.0319    2.4044  9  1  1.9084  1.6624  
2011    283    56730.0000   -0.0055    0.0039   -0.0329    2.4048  9  1  1.9099  1.6636  
2011    283    56760.0000   -0.0029    0.0064   -0.0455    2.4049  9  1  1.9113  1.6649  
2011    283    56790.0000   -0.0010    0.0064   -0.0510    2.4050  9  1  1.9126  1.6661  
2011    283    56820.0000    0.0006    0.0053   -0.0376    2.4052  9  1  1.9140  1.6673  
2011    283    56850.0000    0.0003    0.0075   -0.0475    2.4053  9  1  1.9153  1.6684  
2011    283    56880.0000    0.0018    0.0082   -0.0407    2.4051  9  1  1.9165  1.6696  
2011    283    56910.0000    0.0034    0.0063   -0.0417    2.4054  9  1  1.9177  1.6706  
2011    283    56940.0000    0.0006    0.0028   -0.0484    2.4056  9  1  1.9188  1.6717  
2011    283    56970.0000    0.0003    0.0034   -0.0382    2.4060  9  1  1.9199  1.6727  
2011    283    57000.0000   -0.0008    0.0024   -0.0434    2.4063  9  1  1.9209  1.6737  
2011    283    57030.0000   -0.0006   -0.0000   -0.0357    2.4064  9  1  1.9219  1.6746  
2011    283    57060.0000   -0.0008    0.0023   -0.0415    2.4066  9  1  1.9228  1.6755  
2011    283    57090.0000    0.0091    0.0018   -0.0443    2.4071  9  1  1.9237  1.6763  
2011    283    57120.0000    0.0027    0.0031   -0.0278    2.4077  9  1  1.9245  1.6771  
2011    283    57150.0000    0.0024   -0.0034   -0.0232    2.4082  9  1  1.9252  1.6779  
2011    283    57180.0000    0.0041   -0.0001   -0.0297    2.4084  9  1  1.9259  1.6786  
2011    283    57210.0000    0.0026    0.0013   -0.0379    2.4090  9  1  1.9265  1.6792  
2011    283    57240.0000    0.0056    0.0042   -0.0361    2.4101  9  1  1.9270  1.6798  
2011    283    57270.0000    0.0093    0.0061   -0.0425    2.4109  9  1  1.9275  1.6804  
2011    283    57300.0000    0.0045    0.0059   -0.0325    2.4115  9  1  1.9279  1.6809  
2011    283    57330.0000   -0.0009    0.0031   -0.0362    2.4122  9  1  1.9283  1.6813  
2011    283    57360.0000   -0.0010    0.0055   -0.0351    2.4131  9  1  1.9286  1.6817  
2011    283    57390.0000    0.0001    0.0049   -0.0490    2.4129  9  1  1.9288  1.6820  
2011    283    57420.0000   -0.0014    0.0044   -0.0469    2.4128  9  1  1.9289  1.6823  
2011    283    57450.0000    0.0032    0.0048   -0.0416    2.4128  9  1  1.9290  1.6825  
2011    283    57480.0000    0.0036    0.0014   -0.0330    2.4129  9  1  1.9290  1.6827  
2011    283    57510.0000   -0.0003    0.0037   -0.0426    2.4131  9  1  1.9289  1.6828  
2011    283    57540.0000    0.0038    0.0043   -0.0576    2.4139  9  1  1.9288  1.6829  
2011    283    57570.0000    0.0006    0.0053   -0.0560    2.4140  9  1  1.9285  1.6829  
2011    283    57600.0000    0.0066    0.0060   -0.0593    2.4145  9  1  1.9282  1.6828  
