Starting processing for station: 'BRUS'.
Backward processing ... ... 
Last processing ... ... 
Processing finished for station: 'BRUS'. Results in file: '/Users/shjzhang/Documents/Data/IGS/data/brus2820.11o.out'.
