digraph "AppFrame" {
  compound=true
  node [ fontsize="10", fontname="Helvetica"];
  edge [ labelfontsize="10", labelfontname="Helvetica"];
  subgraph clusterdir_9f13e7e48b1dae88d68f6e470b94897e {
    graph [ bgcolor="#ddddee", pencolor="black", label="lib" fontname="Helvetica", fontsize="10", URL="dir_9f13e7e48b1dae88d68f6e470b94897e.html"]
  dir_1a0678982ae9a7d588e3e21bf7a12aa4 [shape=box, label="AppFrame", style="filled", fillcolor="#eeeeff", pencolor="black", URL="dir_1a0678982ae9a7d588e3e21bf7a12aa4.html"];
  }
}
