digraph "Math" {
  compound=true
  node [ fontsize="10", fontname="Helvetica"];
  edge [ labelfontsize="10", labelfontname="Helvetica"];
  subgraph clusterdir_9f13e7e48b1dae88d68f6e470b94897e {
    graph [ bgcolor="#ddddee", pencolor="black", label="lib" fontname="Helvetica", fontsize="10", URL="dir_9f13e7e48b1dae88d68f6e470b94897e.html"]
  subgraph clusterdir_8bc00a9cb30ca1e40042375383f4ee65 {
    graph [ bgcolor="#eeeeff", pencolor="black", label="" URL="dir_8bc00a9cb30ca1e40042375383f4ee65.html"];
    dir_8bc00a9cb30ca1e40042375383f4ee65 [shape=plaintext label="Math"];
    dir_11cdd0d8cbd2e125d352eb6799b968e1 [shape=box label="Matrix" color="black" fillcolor="white" style="filled" URL="dir_11cdd0d8cbd2e125d352eb6799b968e1.html"];
    dir_ac34e58b5043dc546a0c18e99a2b58c5 [shape=box label="Vector" color="black" fillcolor="white" style="filled" URL="dir_ac34e58b5043dc546a0c18e99a2b58c5.html"];
  }
  }
}
