digraph "CodeGen" {
  compound=true
  node [ fontsize="10", fontname="Helvetica"];
  edge [ labelfontsize="10", labelfontname="Helvetica"];
  subgraph clusterdir_9f13e7e48b1dae88d68f6e470b94897e {
    graph [ bgcolor="#ddddee", pencolor="black", label="lib" fontname="Helvetica", fontsize="10", URL="dir_9f13e7e48b1dae88d68f6e470b94897e.html"]
  dir_e5e55cc17bbc320ea21fea0d0eeefbc3 [shape=box, label="CodeGen", style="filled", fillcolor="#eeeeff", pencolor="black", URL="dir_e5e55cc17bbc320ea21fea0d0eeefbc3.html"];
  }
}
