%ignore gpstk::RinexMetData::data;
%include "../../../lib/FileHandling/RINEX/RinexMetData.hpp"

%extend gpstk::RinexMetData {
   double _lookup_data(int x) {
      return $self->data[static_cast<RinexMetHeader::RinexMetType>(x)];
   }
}

%pythoncode %{
def _RinexMetData_getData(self):
    """
    Returns a dict of the (int->double) data stored.
    The ints are drawn from an enum defined in RinexMetHeader.
    For example, to get the pressure you would use:
        d = myMetData.getData()
        print d[gpstk.RinexMetHeader.PR]
    """
    data = {}
    for i in xrange(RinexMetHeader.HI + 1):
        data[i] = self._lookup_data(i)
    return data

RinexMetData.getData = _RinexMetData_getData
%}
